* * * * * * * * * * * * * * * * * * * *
* Many small words, like a b c d and  *
* the rest followed by a super big    *
* one to see what happens next;       *
* Supercalifragilisticexpialidocious. *
* * * * * * * * * * * * * * * * * * * *
