* * * * * * * * *
* Velit modi    *
* ut adipisci,  *
* Sed           *
* voluptatem    *
* quaerat sed   *
* ut labore     *
* labore,       *
* Consectetur   *
* amet sed      *
* aliquam amet  *
* dolore,       *
* Tempora non   *
* labore        *
* dolore        *
* tempora       *
* adipisci      *
* non, Porro    *
* sit velit     *
* eius          *
* quiquia,      *
* Numquam       *
* quaerat       *
* dolorem sit   *
* quisquam      *
* quisquam      *
* non, Ipsum    *
* sit non       *
* tempora       *
* etincidunt    *
* adipisci,     *
* Tempora       *
* adipisci sed  *
* est           *
* etincidunt    *
* est dolore    *
* dolore, Sit   *
* dolorem       *
* porro labore  *
* amet,         *
* Voluptatem    *
* non dolor     *
* consectetur   *
* quiquia,      *
* Voluptatem    *
* quaerat       *
* consectetur   *
* neque         *
* quisquam,     *
* Sit aliquam   *
* numquam       *
* tempora       *
* velit, Ipsum  *
* quaerat       *
* quiquia ut    *
* est quiquia   *
* quiquia,      *
* Modi          *
* etincidunt    *
* aliquam sit   *
* magnam dolor  *
* dolor,        *
* Numquam       *
* aliquam       *
* dolor         *
* etincidunt    *
* ut, Modi      *
* adipisci      *
* tempora       *
* numquam,      *
* Voluptatem    *
* est adipisci  *
* ut neque      *
* magnam,       *
* Dolor labore  *
* dolore        *
* numquam       *
* velit, Velit  *
* quiquia       *
* adipisci sit  *
* amet est      *
* etincidunt,   *
* Numquam sed   *
* ipsum         *
* quisquam sed  *
* velit eius,   *
* Sit           *
* consectetur   *
* est labore    *
* ipsum         *
* numquam,      *
* Adipisci      *
* etincidunt    *
* dolorem est   *
* dolore        *
* magnam sed,   *
* Dolor est     *
* adipisci      *
* voluptatem    *
* numquam       *
* etincidunt,   *
* Magnam        *
* tempora       *
* tempora       *
* aliquam est,  *
* Amet eius     *
* sed quiquia   *
* quiquia       *
* velit         *
* consectetur,  *
* Eius magnam   *
* etincidunt    *
* aliquam       *
* neque modi    *
* quaerat,      *
* Porro         *
* quaerat       *
* velit modi    *
* sit amet      *
* ipsum amet,   *
* Labore        *
* quisquam      *
* etincidunt    *
* sit, Amet     *
* dolorem       *
* consectetur   *
* consectetur   *
* aliquam       *
* etincidunt    *
* numquam, Sit  *
* quiquia       *
* quaerat       *
* etincidunt    *
* amet numquam  *
* amet          *
* quisquam,     *
* Est numquam   *
* voluptatem    *
* quiquia       *
* adipisci,     *
* Dolorem est   *
* modi          *
* consectetur,  *
* Ipsum         *
* consectetur   *
* numquam est,  *
* Adipisci non  *
* eius amet     *
* tempora       *
* labore        *
* quaerat,      *
* Modi eius     *
* tempora       *
* dolore        *
* aliquam sit,  *
* Sit labore    *
* quiquia non,  *
* Neque eius    *
* neque sed     *
* tempora       *
* labore        *
* labore, Modi  *
* magnam est    *
* est           *
* etincidunt    *
* consectetur,  *
* Ut eius       *
* dolore        *
* numquam ut,   *
* Magnam velit  *
* dolor         *
* consectetur,  *
* Ipsum         *
* quisquam ut   *
* velit         *
* quaerat       *
* ipsum         *
* consectetur,  *
* Neque eius    *
* sit labore    *
* labore        *
* adipisci      *
* voluptatem,   *
* Sed eius      *
* consectetur   *
* consectetur,  *
* Consectetur   *
* est est sit   *
* velit, Amet   *
* sed tempora   *
* labore ipsum  *
* dolore, Eius  *
* ipsum         *
* etincidunt    *
* etincidunt    *
* magnam ut     *
* amet,         *
* Quiquia       *
* consectetur   *
* quiquia       *
* magnam ut     *
* aliquam,      *
* Voluptatem    *
* quiquia est   *
* voluptatem    *
* voluptatem    *
* porro         *
* voluptatem.   *
* * * * * * * * *
