laylah.smith@ucc.ie
aldous.connolly@ucc.ie
emily.ferry@ucc.ie
caisey.okeefe@ucc.ie
nadine.callahan@ucc.ie
leland.randomcrap.yeah@ucc.ie
laylah.murphy@ucc.ie
fred.cullen@ucc.ie
fiona.farrell@ucc.ie
laylah.murphy2@ucc.ie
aoife.oshea@ucc.ie
hilda.manning@ucc.ie
edna.macgee@ucc.ie
laylah.cullen@ucc.ie
gabrielle.oconnor@ucc.ie
cian.osullivan@ucc.ie
billy.lynch@ucc.ie
emily.kavanaugh@ucc.ie
fiona.morris@ucc.ie
fiona.its.about.the.spaces@ucc.ie
gabrielle.whatever.really@ucc.ie
daniel.manning@ucc.ie
hilary.mccarthy@ucc.ie
danielle.mchale@ucc.ie
nadeem.obyrne@ucc.ie
cian.kavanaugh@ucc.ie
nacho.macgee@ucc.ie
gal.ferry@ucc.ie
daniel.oshea@ucc.ie
niamh.oreilly@ucc.ie
emily.cullen@ucc.ie
fiona.keary@ucc.ie
daniel.healy@ucc.ie
fiona.ryan@ucc.ie
hilary.collins@ucc.ie
fiona.macgee@ucc.ie
laylah.callahan@ucc.ie
caisey.oriordan@ucc.ie
geoff.oshea@ucc.ie
edna.byrne@ucc.ie
billy.mcguinness@ucc.ie
darryl.callahan@ucc.ie
hilary.cullen@ucc.ie
gal.walsh@ucc.ie
gabrielle.okeefe@ucc.ie
danielle.oneill@ucc.ie
caisey.obyrne@ucc.ie
freya.mcdermott@ucc.ie
daniel.murphy@ucc.ie
caitlyn.mcguinness@ucc.ie
danielle.callahan@ucc.ie
darryl.otoole@ucc.ie
danielle.dunne@ucc.ie
hector.randomcrap.yeah@ucc.ie
emily.its.about.the.spaces@ucc.ie
hilary.osullivan@ucc.ie
fiona.oshea@ucc.ie
nadeem.walsh@ucc.ie
darryl.miller@ucc.ie
nadine.its.about.the.spaces@ucc.ie
danielle.collins@ucc.ie
laylah.mcdermott@ucc.ie
geoff.mcsweeney@ucc.ie
billy.mcloughlin@ucc.ie
aislin.ryan@ucc.ie
darryl.miller2@ucc.ie
edna.farrell@ucc.ie
liam.lynch@ucc.ie
aislin.keary@ucc.ie
catriona.murphy@ucc.ie
darryl.oneill@ucc.ie
gillia.mcglynn@ucc.ie
edith.mchale@ucc.ie
edna.walsh@ucc.ie
aoife.mcloughlin@ucc.ie
cian.clancy@ucc.ie
nadeem.callahan@ucc.ie
fred.ryan@ucc.ie
emily.ferry2@ucc.ie
hilda.oriordan@ucc.ie
gillia.oriordan@ucc.ie
edna.randomcrap.yeah@ucc.ie
aislin.keary2@ucc.ie
hector.oreilly@ucc.ie
caitlyn.randomcrap.yeah@ucc.ie
geoff.byrne@ucc.ie
aldous.flynn@ucc.ie
hilary.manning@ucc.ie
earl.mcguinness@ucc.ie
fergal.its.about.the.spaces@ucc.ie
gabrielle.doyle@ucc.ie
gillia.gaughan@ucc.ie
gillia.osullivan@ucc.ie
cian.doyle@ucc.ie
aoife.mcguinness@ucc.ie
cian.kelly@ucc.ie
earl.randomcrap.yeah@ucc.ie
niamh.callahan@ucc.ie
fiona.callahan@ucc.ie
nadeem.callahan2@ucc.ie
eamonn.foley@ucc.ie
geoff.mccluskey@ucc.ie
danielle.byrne@ucc.ie
catriona.farrell@ucc.ie
freya.cullen@ucc.ie
aoife.macgee@ucc.ie
gabrielle.kavanaugh@ucc.ie
caitlyn.van.gogh@ucc.ie
alfred.mcglynn@ucc.ie
gabrielle.collins@ucc.ie
daniel.mcglynn@ucc.ie
billy.oriordan@ucc.ie
aldous.fagan@ucc.ie
gillia.ryan@ucc.ie
niamh.gibbons@ucc.ie
edith.oconnor@ucc.ie
nadeem.randomcrap.yeah@ucc.ie
danielle.mahoney@ucc.ie
aldous.mchale@ucc.ie
danielle.mcloughlin@ucc.ie
aoife.mcsweeney@ucc.ie
darryl.lynch@ucc.ie
aoife.oriordan@ucc.ie
aoife.mchale@ucc.ie
emily.ferry3@ucc.ie
gabrielle.doyle2@ucc.ie
catriona.kavanaugh@ucc.ie
bertie.de.la.renardiere@ucc.ie
deandra.fitzpatrick@ucc.ie
billy.rice@ucc.ie
daniel.mchale@ucc.ie
edith.mulrooney@ucc.ie
nadine.oneill@ucc.ie
nadeem.healy@ucc.ie
freya.obyrne@ucc.ie
earl.van.gogh@ucc.ie
caitlyn.rice@ucc.ie
daniel.oriordan@ucc.ie
aldous.manning@ucc.ie
hilary.flynn@ucc.ie
bertie.rice@ucc.ie
fergal.flynn@ucc.ie
aislin.mchale@ucc.ie
fred.walsh@ucc.ie
freya.murphy@ucc.ie
aislin.kavanaugh@ucc.ie
nadine.regan@ucc.ie
eamonn.morris@ucc.ie
nadeem.oreilly@ucc.ie
hector.flynn@ucc.ie
leland.regan@ucc.ie
niamh.gaughan@ucc.ie
fiona.whatever.really@ucc.ie
aoife.van.gogh@ucc.ie
billy.mcsweeney@ucc.ie
caisey.oriordan2@ucc.ie
liam.mulrooney@ucc.ie
aldous.gaughan@ucc.ie
alfred.obyrne@ucc.ie
fred.morris@ucc.ie
hector.ferry@ucc.ie
catriona.smith@ucc.ie
liam.oriordan@ucc.ie
danielle.gibbons@ucc.ie
fergal.oriordan@ucc.ie
caisey.walsh@ucc.ie
gabrielle.its.about.the.spaces@ucc.ie
fiona.clancy@ucc.ie
fergal.clancy@ucc.ie
geoff.de.la.renardiere@ucc.ie
aldous.otoole@ucc.ie
eamonn.mccarthy@ucc.ie
alfred.fitzpatrick@ucc.ie
hilary.okeefe@ucc.ie
earl.farrell@ucc.ie
eamonn.osullivan@ucc.ie
hilda.dunne@ucc.ie
aoife.kavanaugh@ucc.ie
bennett.mcguinness@ucc.ie
bennett.mchale@ucc.ie
danielle.miller@ucc.ie
nadine.otoole@ucc.ie
alfred.farrell@ucc.ie
eamonn.oreilly@ucc.ie
emily.mcdermott@ucc.ie
darryl.its.about.the.spaces@ucc.ie
danielle.regan@ucc.ie
daniel.morris@ucc.ie
geoff.kavanaugh@ucc.ie
fergal.kelly@ucc.ie
leland.mcglynn@ucc.ie
gillia.fagan@ucc.ie
fred.fitzpatrick@ucc.ie
earl.mcloughlin@ucc.ie
caitlyn.foley@ucc.ie
leland.murphy@ucc.ie
nadeem.oshea@ucc.ie
eamonn.callahan@ucc.ie
gabrielle.murphy@ucc.ie
hector.oconnor@ucc.ie
eamonn.miller@ucc.ie
catriona.clancy@ucc.ie
danielle.obyrne@ucc.ie
aldous.connolly2@ucc.ie
edith.mcdermott@ucc.ie
gal.smith@ucc.ie
fergal.kelly2@ucc.ie
danielle.dunne2@ucc.ie
darryl.clancy@ucc.ie
alfred.fitzpatrick2@ucc.ie
laylah.obyrne@ucc.ie
geoff.manning@ucc.ie
laylah.regan@ucc.ie
daniel.mahoney@ucc.ie
freya.byrne@ucc.ie
daniel.flynn@ucc.ie
geoff.murphy@ucc.ie
caisey.lynch@ucc.ie
edna.de.la.renardiere@ucc.ie
nadeem.fagan@ucc.ie
gillia.smith@ucc.ie
nacho.mccluskey@ucc.ie
bertie.mulrooney@ucc.ie
darryl.fitzpatrick@ucc.ie
leland.oshea@ucc.ie
daniel.mulrooney@ucc.ie
deandra.whatever.really@ucc.ie
bertie.oconnor@ucc.ie
bennett.mcloughlin@ucc.ie
gabrielle.mccarthy@ucc.ie
liam.osullivan@ucc.ie
aoife.miller@ucc.ie
bertie.ferry@ucc.ie
cian.macgee@ucc.ie
liam.mcsweeney@ucc.ie
earl.miller@ucc.ie
aldous.cullen@ucc.ie
edna.whatever.really@ucc.ie
edna.fagan@ucc.ie
emily.mccluskey@ucc.ie
billy.foley@ucc.ie
freya.manning@ucc.ie
caitlyn.manning@ucc.ie
gabrielle.kelly@ucc.ie
catriona.mcglynn@ucc.ie
darryl.manning@ucc.ie
darryl.doyle@ucc.ie
edna.mulrooney@ucc.ie
fiona.macgee2@ucc.ie
gal.clancy@ucc.ie
edna.kavanaugh@ucc.ie
danielle.randomcrap.yeah@ucc.ie
alfred.callahan@ucc.ie
emily.okeefe@ucc.ie
fiona.mcguinness@ucc.ie
nacho.healy@ucc.ie
aislin.ferry@ucc.ie
deandra.mccluskey@ucc.ie
niamh.mchale@ucc.ie
catriona.osullivan@ucc.ie
gabrielle.lynch@ucc.ie
caitlyn.clancy@ucc.ie
bertie.otoole@ucc.ie
emily.flynn@ucc.ie
geoff.otoole@ucc.ie
catriona.connolly@ucc.ie
hector.gibbons@ucc.ie
gillia.murphy@ucc.ie
aldous.mccluskey@ucc.ie
gal.byrne@ucc.ie
hilda.oshea@ucc.ie
nadine.cullen@ucc.ie
deandra.gaughan@ucc.ie
cian.oneill@ucc.ie
nadine.murphy@ucc.ie
deandra.callahan@ucc.ie
hilary.mchale@ucc.ie
gal.ryan@ucc.ie
darryl.de.la.renardiere@ucc.ie
caitlyn.gaughan@ucc.ie
bennett.mccluskey@ucc.ie
catriona.lynch@ucc.ie
eamonn.fitzpatrick@ucc.ie
aoife.gaughan@ucc.ie
billy.kelly@ucc.ie
deandra.kavanaugh@ucc.ie
geoff.flynn@ucc.ie
aislin.regan@ucc.ie
laylah.oreilly@ucc.ie
edna.foley@ucc.ie
niamh.flynn@ucc.ie
fergal.mcglynn@ucc.ie
leland.whatever.really@ucc.ie
deandra.connolly@ucc.ie
eamonn.oneill@ucc.ie
nacho.mcglynn@ucc.ie
cian.rice@ucc.ie
aoife.lynch@ucc.ie
deandra.murphy@ucc.ie
niamh.mcguinness@ucc.ie
fred.mccluskey@ucc.ie
darryl.lynch2@ucc.ie
leland.gibbons@ucc.ie
leland.mcdermott@ucc.ie
bennett.fagan@ucc.ie
aldous.kelly@ucc.ie
alfred.clancy@ucc.ie
alfred.doyle@ucc.ie
daniel.miller@ucc.ie
alfred.kelly@ucc.ie
eamonn.mahoney@ucc.ie
nacho.de.la.renardiere@ucc.ie
fiona.okeefe@ucc.ie
liam.gaughan@ucc.ie
caisey.randomcrap.yeah@ucc.ie
hilda.kavanaugh@ucc.ie
bertie.oshea@ucc.ie
nadeem.fagan2@ucc.ie
geoff.de.la.renardiere2@ucc.ie
aoife.regan@ucc.ie
niamh.miller@ucc.ie
bennett.van.gogh@ucc.ie
nadeem.macgee@ucc.ie
hilary.cullen2@ucc.ie
aislin.callahan@ucc.ie
aldous.mcsweeney@ucc.ie
bertie.healy@ucc.ie
aislin.cullen@ucc.ie
aoife.its.about.the.spaces@ucc.ie
hilda.flynn@ucc.ie
aldous.collins@ucc.ie
billy.flynn@ucc.ie
fred.flynn@ucc.ie
daniel.oconnor@ucc.ie
bertie.collins@ucc.ie
caitlyn.farrell@ucc.ie
fiona.osullivan@ucc.ie
catriona.lynch2@ucc.ie
caisey.miller@ucc.ie
edith.manning@ucc.ie
leland.ferry@ucc.ie
daniel.rice@ucc.ie
edith.smith@ucc.ie
earl.ryan@ucc.ie
edith.collins@ucc.ie
liam.manning@ucc.ie
nacho.gaughan@ucc.ie
caisey.oshea@ucc.ie
deandra.mcloughlin@ucc.ie
darryl.farrell@ucc.ie
hilda.mcguinness@ucc.ie
alfred.callahan2@ucc.ie
edna.its.about.the.spaces@ucc.ie
aldous.van.gogh@ucc.ie
eamonn.mcdermott@ucc.ie
caitlyn.foley2@ucc.ie
bennett.mchale2@ucc.ie
nacho.foley@ucc.ie
nadeem.otoole@ucc.ie
earl.oconnor@ucc.ie
hector.oriordan@ucc.ie
hector.foley@ucc.ie
hilary.walsh@ucc.ie
nadeem.mchale@ucc.ie
liam.van.gogh@ucc.ie
aislin.healy@ucc.ie
aoife.mcsweeney2@ucc.ie
geoff.mcdermott@ucc.ie
liam.miller@ucc.ie
fiona.lynch@ucc.ie
aoife.regan2@ucc.ie
aldous.miller@ucc.ie
edna.osullivan@ucc.ie
caisey.macgee@ucc.ie
leland.clancy@ucc.ie
fiona.healy@ucc.ie
danielle.oshea@ucc.ie
alfred.de.la.renardiere@ucc.ie
billy.mcdermott@ucc.ie
earl.mchale@ucc.ie
billy.healy@ucc.ie
fergal.foley@ucc.ie
caisey.collins@ucc.ie
gal.morris@ucc.ie
aoife.smith@ucc.ie
caitlyn.murphy@ucc.ie
eamonn.morris2@ucc.ie
fred.gaughan@ucc.ie
freya.lynch@ucc.ie
nadine.ryan@ucc.ie
nacho.mahoney@ucc.ie
fiona.foley@ucc.ie
freya.oshea@ucc.ie
nadine.lynch@ucc.ie
emily.foley@ucc.ie
caitlyn.walsh@ucc.ie
fergal.macgee@ucc.ie
aldous.mcloughlin@ucc.ie
gillia.oneill@ucc.ie
nadeem.de.la.renardiere@ucc.ie
edith.mahoney@ucc.ie
caitlyn.miller@ucc.ie
aislin.farrell@ucc.ie
earl.macgee@ucc.ie
fred.fitzpatrick2@ucc.ie
geoff.rice@ucc.ie
cian.mccluskey@ucc.ie
geoff.oconnor@ucc.ie
danielle.gibbons2@ucc.ie
aislin.keary3@ucc.ie
gal.mchale@ucc.ie
danielle.oconnor@ucc.ie
gabrielle.randomcrap.yeah@ucc.ie
nadeem.cullen@ucc.ie
nacho.farrell@ucc.ie
freya.morris@ucc.ie
edna.ferry@ucc.ie
aislin.flynn@ucc.ie
cian.callahan@ucc.ie
billy.collins@ucc.ie
aislin.mcguinness@ucc.ie
leland.mchale@ucc.ie
nacho.oreilly@ucc.ie
aldous.macgee@ucc.ie
hilary.cullen3@ucc.ie
cian.its.about.the.spaces@ucc.ie
leland.de.la.renardiere@ucc.ie
edna.callahan@ucc.ie
liam.mccarthy@ucc.ie
aislin.mcsweeney@ucc.ie
geoff.healy@ucc.ie
hilary.lynch@ucc.ie
hilda.smith@ucc.ie
gillia.gaughan2@ucc.ie
niamh.walsh@ucc.ie
edith.osullivan@ucc.ie
leland.oriordan@ucc.ie
gabrielle.clancy@ucc.ie
caisey.dunne@ucc.ie
darryl.oneill2@ucc.ie
gabrielle.healy@ucc.ie
aislin.mcdermott@ucc.ie
fergal.oreilly@ucc.ie
earl.healy@ucc.ie
hilda.oneill@ucc.ie
liam.otoole@ucc.ie
gal.keary@ucc.ie
eamonn.byrne@ucc.ie
darryl.de.la.renardiere2@ucc.ie
aldous.morris@ucc.ie
fiona.macgee3@ucc.ie
aldous.mcdermott@ucc.ie
nadeem.randomcrap.yeah2@ucc.ie
niamh.whatever.really@ucc.ie
caitlyn.mccarthy@ucc.ie
catriona.rice@ucc.ie
hilda.osullivan@ucc.ie
alfred.mccarthy@ucc.ie
gillia.mulrooney@ucc.ie
nadeem.macgee2@ucc.ie
emily.okeefe2@ucc.ie
laylah.ryan@ucc.ie
fiona.healy2@ucc.ie
niamh.mcdermott@ucc.ie
darryl.dunne@ucc.ie
darryl.oconnor@ucc.ie
caitlyn.smith@ucc.ie
fergal.oriordan2@ucc.ie
nadeem.oreilly2@ucc.ie
edna.rice@ucc.ie
caisey.kelly@ucc.ie
edna.regan@ucc.ie
freya.mahoney@ucc.ie
gal.kavanaugh@ucc.ie
gillia.oconnor@ucc.ie
gillia.oneill2@ucc.ie
danielle.oriordan@ucc.ie
aldous.murphy@ucc.ie
caitlyn.cullen@ucc.ie
nadine.oconnor@ucc.ie
hilary.oreilly@ucc.ie
fiona.whatever.really2@ucc.ie
fiona.smith@ucc.ie
nacho.lynch@ucc.ie
bertie.regan@ucc.ie
gillia.macgee@ucc.ie
hilary.healy@ucc.ie
aldous.miller2@ucc.ie
nacho.rice@ucc.ie
earl.otoole@ucc.ie
edith.whatever.really@ucc.ie
bennett.byrne@ucc.ie
bertie.mcloughlin@ucc.ie
alfred.gibbons@ucc.ie
fergal.okeefe@ucc.ie
nadeem.kelly@ucc.ie
nadeem.gibbons@ucc.ie
nadeem.fitzpatrick@ucc.ie
niamh.mcsweeney@ucc.ie
alfred.osullivan@ucc.ie
leland.mahoney@ucc.ie
alfred.walsh@ucc.ie
eamonn.dunne@ucc.ie
cian.callahan2@ucc.ie
alfred.oriordan@ucc.ie
aislin.van.gogh@ucc.ie
caitlyn.dunne@ucc.ie
edith.mccluskey@ucc.ie
aoife.foley@ucc.ie
emily.callahan@ucc.ie
caisey.oreilly@ucc.ie
caisey.morris@ucc.ie
cian.healy@ucc.ie
nadine.oriordan@ucc.ie
catriona.flynn@ucc.ie
eamonn.foley2@ucc.ie
leland.miller@ucc.ie
catriona.van.gogh@ucc.ie
geoff.lynch@ucc.ie
nadine.mcdermott@ucc.ie
alfred.miller@ucc.ie
gal.fitzpatrick@ucc.ie
billy.mccluskey@ucc.ie
gabrielle.kelly2@ucc.ie
emily.flynn2@ucc.ie
bennett.clancy@ucc.ie
caisey.callahan@ucc.ie
eamonn.doyle@ucc.ie
hilary.smith@ucc.ie
fergal.murphy@ucc.ie
aoife.mcsweeney3@ucc.ie
emily.gaughan@ucc.ie
bertie.doyle@ucc.ie
leland.mahoney2@ucc.ie
geoff.manning2@ucc.ie
hilary.obyrne@ucc.ie
darryl.keary@ucc.ie
aislin.mulrooney@ucc.ie
danielle.fitzpatrick@ucc.ie
hilary.okeefe2@ucc.ie
nadeem.ferry@ucc.ie
aislin.mchale2@ucc.ie
edith.mcdermott2@ucc.ie
fergal.mccluskey@ucc.ie
nadine.murphy2@ucc.ie
billy.callahan@ucc.ie
bertie.de.la.renardiere2@ucc.ie
aoife.manning@ucc.ie
bertie.de.la.renardiere3@ucc.ie
hilary.foley@ucc.ie
gabrielle.mccarthy2@ucc.ie
bertie.mcguinness@ucc.ie
cian.connolly@ucc.ie
emily.oneill@ucc.ie
alfred.its.about.the.spaces@ucc.ie
caisey.gibbons@ucc.ie
fred.walsh2@ucc.ie
emily.mcglynn@ucc.ie
eamonn.cullen@ucc.ie
freya.manning2@ucc.ie
billy.farrell@ucc.ie
edith.mahoney2@ucc.ie
earl.oreilly@ucc.ie
caitlyn.okeefe@ucc.ie
hilary.cullen4@ucc.ie
nadeem.oneill@ucc.ie
caitlyn.osullivan@ucc.ie
caisey.mccarthy@ucc.ie
eamonn.ferry@ucc.ie
fiona.regan@ucc.ie
edith.rice@ucc.ie
nadeem.murphy@ucc.ie
gabrielle.kelly3@ucc.ie
liam.cullen@ucc.ie
gillia.mccluskey@ucc.ie
darryl.oreilly@ucc.ie
aislin.mahoney@ucc.ie
gal.oconnor@ucc.ie
freya.de.la.renardiere@ucc.ie
billy.mcglynn@ucc.ie
hilary.mccarthy2@ucc.ie
nadine.okeefe@ucc.ie
nadine.ferry@ucc.ie
catriona.its.about.the.spaces@ucc.ie
hilda.macgee@ucc.ie
daniel.its.about.the.spaces@ucc.ie
caitlyn.fagan@ucc.ie
alfred.macgee@ucc.ie
earl.mchale2@ucc.ie
caisey.morris2@ucc.ie
gillia.walsh@ucc.ie
bennett.walsh@ucc.ie
fiona.farrell2@ucc.ie
fred.kavanaugh@ucc.ie
nadine.macgee@ucc.ie
freya.osullivan@ucc.ie
gabrielle.mccluskey@ucc.ie
fred.ferry@ucc.ie
geoff.farrell@ucc.ie
geoff.obyrne@ucc.ie
daniel.mcsweeney@ucc.ie
gal.osullivan@ucc.ie
aislin.mcloughlin@ucc.ie
aoife.mcguinness2@ucc.ie
nadeem.its.about.the.spaces@ucc.ie
edna.ryan@ucc.ie
bennett.mcloughlin2@ucc.ie
caisey.manning@ucc.ie
cian.clancy2@ucc.ie
nadeem.whatever.really@ucc.ie
gillia.walsh2@ucc.ie
nadeem.van.gogh@ucc.ie
catriona.foley@ucc.ie
darryl.gaughan@ucc.ie
nacho.rice2@ucc.ie
gillia.its.about.the.spaces@ucc.ie
hilda.ferry@ucc.ie
liam.byrne@ucc.ie
danielle.oconnor2@ucc.ie
daniel.gaughan@ucc.ie
darryl.gibbons@ucc.ie
fergal.obyrne@ucc.ie
edna.gibbons@ucc.ie
cian.oconnor@ucc.ie
darryl.walsh@ucc.ie
edna.mccluskey@ucc.ie
nadine.macgee2@ucc.ie
caitlyn.regan@ucc.ie
catriona.oreilly@ucc.ie
emily.mahoney@ucc.ie
freya.dunne@ucc.ie
fergal.clancy2@ucc.ie
hector.collins@ucc.ie
cian.macgee2@ucc.ie
hilda.mccarthy@ucc.ie
fergal.fagan@ucc.ie
cian.gibbons@ucc.ie
niamh.oneill@ucc.ie
hilda.lynch@ucc.ie
geoff.callahan@ucc.ie
darryl.osullivan@ucc.ie
daniel.clancy@ucc.ie
caisey.connolly@ucc.ie
nadeem.keary@ucc.ie
bennett.macgee@ucc.ie
aislin.mccarthy@ucc.ie
liam.regan@ucc.ie
bennett.randomcrap.yeah@ucc.ie
bertie.ryan@ucc.ie
catriona.byrne@ucc.ie
daniel.mulrooney2@ucc.ie
daniel.callahan@ucc.ie
catriona.regan@ucc.ie
fiona.kavanaugh@ucc.ie
bennett.mccarthy@ucc.ie
laylah.keary@ucc.ie
nadeem.mcdermott@ucc.ie
freya.flynn@ucc.ie
nadine.keary@ucc.ie
hilda.dunne2@ucc.ie
hilary.oconnor@ucc.ie
gal.whatever.really@ucc.ie
edith.de.la.renardiere@ucc.ie
alfred.gaughan@ucc.ie
emily.callahan2@ucc.ie
catriona.doyle@ucc.ie
catriona.keary@ucc.ie
daniel.doyle@ucc.ie
danielle.mchale2@ucc.ie
niamh.miller2@ucc.ie
edna.van.gogh@ucc.ie
emily.mcdermott2@ucc.ie
cian.ferry@ucc.ie
deandra.oshea@ucc.ie
nadeem.kavanaugh@ucc.ie
edna.whatever.really2@ucc.ie
bennett.gibbons@ucc.ie
nadine.mahoney@ucc.ie
hilda.oshea2@ucc.ie
billy.murphy@ucc.ie
aoife.oriordan2@ucc.ie
hilda.byrne@ucc.ie
geoff.its.about.the.spaces@ucc.ie
hilary.oconnor2@ucc.ie
gabrielle.lynch2@ucc.ie
earl.cullen@ucc.ie
catriona.mahoney@ucc.ie
niamh.flynn2@ucc.ie
fergal.oriordan3@ucc.ie
aislin.mcglynn@ucc.ie
hilary.mcloughlin@ucc.ie
nadine.rice@ucc.ie
fred.osullivan@ucc.ie
fred.walsh3@ucc.ie
edna.randomcrap.yeah2@ucc.ie
catriona.rice2@ucc.ie
caisey.miller2@ucc.ie
edith.van.gogh@ucc.ie
danielle.farrell@ucc.ie
emily.oriordan@ucc.ie
eamonn.mahoney2@ucc.ie
laylah.regan2@ucc.ie
deandra.connolly2@ucc.ie
niamh.ryan@ucc.ie
fred.lynch@ucc.ie
eamonn.lynch@ucc.ie
edith.ryan@ucc.ie
daniel.dunne@ucc.ie
alfred.dunne@ucc.ie
billy.otoole@ucc.ie
geoff.oriordan@ucc.ie
aislin.gibbons@ucc.ie
fred.mcloughlin@ucc.ie
fergal.whatever.really@ucc.ie
fiona.kavanaugh2@ucc.ie
catriona.mcguinness@ucc.ie
aoife.oshea2@ucc.ie
catriona.mchale@ucc.ie
edith.connolly@ucc.ie
edna.walsh2@ucc.ie
cian.foley@ucc.ie
gal.mccarthy@ucc.ie
nacho.keary@ucc.ie
danielle.mccluskey@ucc.ie
gabrielle.keary@ucc.ie
leland.cullen@ucc.ie
bertie.de.la.renardiere4@ucc.ie
fiona.healy3@ucc.ie
hector.ferry2@ucc.ie
edna.gaughan@ucc.ie
daniel.mcdermott@ucc.ie
aoife.healy@ucc.ie
hilda.de.la.renardiere@ucc.ie
aldous.its.about.the.spaces@ucc.ie
nadeem.mccarthy@ucc.ie
caisey.gaughan@ucc.ie
fergal.gaughan@ucc.ie
gillia.gaughan3@ucc.ie
earl.connolly@ucc.ie
earl.manning@ucc.ie
bertie.kelly@ucc.ie
bertie.oneill@ucc.ie
bennett.byrne2@ucc.ie
aislin.mchale3@ucc.ie
cian.morris@ucc.ie
bertie.mccluskey@ucc.ie
edna.gibbons2@ucc.ie
liam.cullen2@ucc.ie
fiona.miller@ucc.ie
caisey.otoole@ucc.ie
emily.okeefe3@ucc.ie
edith.regan@ucc.ie
daniel.collins@ucc.ie
gal.whatever.really2@ucc.ie
aislin.smith@ucc.ie
liam.gibbons@ucc.ie
nacho.doyle@ucc.ie
catriona.ryan@ucc.ie
daniel.van.gogh@ucc.ie
darryl.byrne@ucc.ie
leland.mccarthy@ucc.ie
fergal.mcguinness@ucc.ie
darryl.healy@ucc.ie
deandra.miller@ucc.ie
caisey.obyrne2@ucc.ie
fiona.obyrne@ucc.ie
gillia.mccarthy@ucc.ie
nadeem.callahan3@ucc.ie
eamonn.mchale@ucc.ie
leland.de.la.renardiere2@ucc.ie
edith.mchale2@ucc.ie
nadeem.van.gogh2@ucc.ie
nadeem.mcsweeney@ucc.ie
fiona.miller2@ucc.ie
niamh.fitzpatrick@ucc.ie
leland.mccluskey@ucc.ie
gabrielle.macgee@ucc.ie
nadine.farrell@ucc.ie
fergal.gaughan2@ucc.ie
leland.oshea2@ucc.ie
geoff.oriordan2@ucc.ie
caisey.regan@ucc.ie
freya.farrell@ucc.ie
billy.macgee@ucc.ie
gillia.mccluskey2@ucc.ie
bertie.regan2@ucc.ie
danielle.macgee@ucc.ie
billy.otoole2@ucc.ie
edna.morris@ucc.ie
hilary.mccluskey@ucc.ie
niamh.obyrne@ucc.ie
gal.kavanaugh2@ucc.ie
nacho.healy2@ucc.ie
fiona.macgee4@ucc.ie
niamh.oriordan@ucc.ie
hilary.gaughan@ucc.ie
hilary.byrne@ucc.ie
daniel.mccluskey@ucc.ie
earl.clancy@ucc.ie
emily.regan@ucc.ie
freya.manning3@ucc.ie
niamh.randomcrap.yeah@ucc.ie
hilda.clancy@ucc.ie
aldous.healy@ucc.ie
deandra.mcglynn@ucc.ie
emily.oneill2@ucc.ie
danielle.kavanaugh@ucc.ie
liam.dunne@ucc.ie
hilda.de.la.renardiere2@ucc.ie
edna.dunne@ucc.ie
billy.connolly@ucc.ie
niamh.keary@ucc.ie
caitlyn.kelly@ucc.ie
deandra.walsh@ucc.ie
caitlyn.de.la.renardiere@ucc.ie
billy.obyrne@ucc.ie
gal.mccluskey@ucc.ie
emily.miller@ucc.ie
nacho.farrell2@ucc.ie
niamh.walsh2@ucc.ie
daniel.obyrne@ucc.ie
hilda.van.gogh@ucc.ie
fergal.otoole@ucc.ie
gal.obyrne@ucc.ie
daniel.rice2@ucc.ie
earl.osullivan@ucc.ie
niamh.doyle@ucc.ie
geoff.callahan2@ucc.ie
edith.de.la.renardiere2@ucc.ie
fiona.mcloughlin@ucc.ie
darryl.connolly@ucc.ie
freya.randomcrap.yeah@ucc.ie
nadeem.mccluskey@ucc.ie
nadine.gibbons@ucc.ie
niamh.de.la.renardiere@ucc.ie
fiona.collins@ucc.ie
gal.oriordan@ucc.ie
caisey.oreilly2@ucc.ie
nacho.mcguinness@ucc.ie
hilary.miller@ucc.ie
daniel.its.about.the.spaces2@ucc.ie
geoff.mcguinness@ucc.ie
fred.oneill@ucc.ie
eamonn.oshea@ucc.ie
laylah.farrell@ucc.ie
liam.regan2@ucc.ie
catriona.otoole@ucc.ie
liam.mahoney@ucc.ie
eamonn.callahan2@ucc.ie
danielle.lynch@ucc.ie
hector.de.la.renardiere@ucc.ie
gillia.oriordan2@ucc.ie
gal.miller@ucc.ie
liam.regan3@ucc.ie
niamh.oreilly2@ucc.ie
emily.gaughan2@ucc.ie
cian.mcsweeney@ucc.ie
emily.oconnor@ucc.ie
catriona.cullen@ucc.ie
alfred.dunne2@ucc.ie
hilda.rice@ucc.ie
fred.keary@ucc.ie
deandra.healy@ucc.ie
hector.dunne@ucc.ie
caisey.oshea2@ucc.ie
gabrielle.de.la.renardiere@ucc.ie
nacho.callahan@ucc.ie
laylah.kelly@ucc.ie
earl.its.about.the.spaces@ucc.ie
caisey.walsh2@ucc.ie
catriona.oneill@ucc.ie
deandra.gibbons@ucc.ie
fred.mcguinness@ucc.ie
earl.okeefe@ucc.ie
cian.mcdermott@ucc.ie
geoff.walsh@ucc.ie
gillia.oneill3@ucc.ie
hilda.obyrne@ucc.ie
fergal.morris@ucc.ie
daniel.oneill@ucc.ie
bertie.gibbons@ucc.ie
caisey.regan2@ucc.ie
deandra.clancy@ucc.ie
earl.whatever.really@ucc.ie
gal.ryan2@ucc.ie
billy.fagan@ucc.ie
gal.mahoney@ucc.ie
darryl.mcsweeney@ucc.ie
hilda.clancy2@ucc.ie
hilda.van.gogh2@ucc.ie
caisey.fitzpatrick@ucc.ie
bertie.oriordan@ucc.ie
earl.oshea@ucc.ie
bennett.miller@ucc.ie
leland.mcsweeney@ucc.ie
liam.mulrooney2@ucc.ie
emily.fagan@ucc.ie
gillia.mcloughlin@ucc.ie
aoife.dunne@ucc.ie
hector.farrell@ucc.ie
fred.oshea@ucc.ie
nacho.okeefe@ucc.ie
hilda.macgee2@ucc.ie
freya.foley@ucc.ie
edna.fitzpatrick@ucc.ie
billy.oconnor@ucc.ie
aoife.flynn@ucc.ie
gal.mcguinness@ucc.ie
aldous.ryan@ucc.ie
leland.rice@ucc.ie
danielle.oshea2@ucc.ie
fred.randomcrap.yeah@ucc.ie
darryl.mulrooney@ucc.ie
hilda.mccluskey@ucc.ie
laylah.mchale@ucc.ie
nadine.fitzpatrick@ucc.ie
cian.flynn@ucc.ie
edna.mcglynn@ucc.ie
nadeem.oconnor@ucc.ie
hilda.callahan@ucc.ie
hilary.connolly@ucc.ie
catriona.smith2@ucc.ie
fiona.whatever.really3@ucc.ie
hector.manning@ucc.ie
catriona.oneill2@ucc.ie
geoff.mccarthy@ucc.ie
cian.osullivan2@ucc.ie
cian.callahan3@ucc.ie
aoife.mccarthy@ucc.ie
fiona.fitzpatrick@ucc.ie
danielle.oreilly@ucc.ie
laylah.manning@ucc.ie
hector.cullen@ucc.ie
edith.foley@ucc.ie
nadine.its.about.the.spaces2@ucc.ie
bertie.mcsweeney@ucc.ie
edna.flynn@ucc.ie
aislin.walsh@ucc.ie
fiona.dunne@ucc.ie
cian.doyle2@ucc.ie
nacho.oconnor@ucc.ie
billy.clancy@ucc.ie
nadine.morris@ucc.ie
caisey.mcsweeney@ucc.ie
hector.its.about.the.spaces@ucc.ie
bennett.morris@ucc.ie
danielle.gibbons3@ucc.ie
fiona.lynch2@ucc.ie
deandra.mcdermott@ucc.ie
caisey.its.about.the.spaces@ucc.ie
fergal.walsh@ucc.ie
geoff.collins@ucc.ie
caitlyn.mcguinness2@ucc.ie
emily.manning@ucc.ie
caisey.ryan@ucc.ie
gillia.morris@ucc.ie
darryl.whatever.really@ucc.ie
nacho.oconnor2@ucc.ie
caisey.okeefe2@ucc.ie
darryl.healy2@ucc.ie
freya.farrell2@ucc.ie
gal.farrell@ucc.ie
freya.oreilly@ucc.ie
catriona.obyrne@ucc.ie
hilda.osullivan2@ucc.ie
fiona.murphy@ucc.ie
leland.manning@ucc.ie
niamh.foley@ucc.ie
emily.mcdermott3@ucc.ie
billy.ryan@ucc.ie
freya.fitzpatrick@ucc.ie
deandra.mccarthy@ucc.ie
bertie.dunne@ucc.ie
gabrielle.macgee2@ucc.ie
emily.byrne@ucc.ie
leland.smith@ucc.ie
nadeem.oconnor2@ucc.ie
laylah.mcglynn@ucc.ie
aoife.ferry@ucc.ie
edna.mcglynn2@ucc.ie
nacho.morris@ucc.ie
bertie.byrne@ucc.ie
billy.mcguinness2@ucc.ie
niamh.byrne@ucc.ie
bertie.mulrooney2@ucc.ie
deandra.mcglynn2@ucc.ie
caitlyn.doyle@ucc.ie
freya.cullen2@ucc.ie
darryl.byrne2@ucc.ie
freya.ryan@ucc.ie
emily.healy@ucc.ie
niamh.mulrooney@ucc.ie
leland.farrell@ucc.ie
niamh.farrell@ucc.ie
danielle.healy@ucc.ie
billy.doyle@ucc.ie
eamonn.walsh@ucc.ie
deandra.rice@ucc.ie
edna.healy@ucc.ie
gabrielle.collins2@ucc.ie
