4 0 1000
26 47
62 64
59 78
27 46
43 3
9 62
57 20
23 26
13 32
80 12
14 31
6 72
53 64
63 48
80 34
61 0
20 75
36 22
49 58
80 56
76 54
70 68
77 55
25 49
21 59
64 20
19 39
12 69
66 22
4 35
19 13
28 32
78 46
42 31
64 32
30 58
4 73
8 12
80 3
26 67
68 46
59 19
66 42
12 50
55 71
69 73
16 75
0 14
77 48
51 5
75 0
49 21
39 30
35 70
23 50
78 49
67 12
38 64
3 55
59 50
68 15
25 70
47 31
30 61
54 46
21 8
34 32
58 37
2 64
22 7
7 37
70 13
57 8
40 48
71 8
54 64
12 41
76 78
18 57
9 20
24 28
71 38
36 4
63 12
37 25
61 12
71 60
77 41
49 14
54 21
53 0
9 79
25 37
6 1
78 56
37 77
31 27
5 20
11 65
33 60
23 33
6 27
28 44
34 59
15 79
32 23
63 65
7 34
61 49
70 4
18 22
68 28
66 60
23 31
3 77
27 65
55 36
41 54
28 67
79 65
76 69
68 58
18 48
5 79
14 26
72 61
60 0
43 56
15 19
41 71
74 63
71 53
62 26
25 4
22 76
13 25
0 50
79 28
70 67
57 78
75 20
30 5
76 23
55 7
57 48
47 45
39 64
4 38
78 37
59 38
68 27
23 20
18 17
33 47
30 49
69 26
43 27
21 4
22 11
11 50
44 28
9 6
14 29
38 46
62 59
72 36
60 31
49 38
30 64
80 36
24 16
71 50
66 64
39 5
56 77
19 67
58 79
64 22
45 76
28 4
4 7
79 3
51 36
21 35
17 3
32 37
20 8
53 38
57 35
25 67
47 16
4 75
69 3
36 43
49 69
31 61
56 8
16 62
23 11
12 44
45 26
69 45
8 20
9 17
74 33
71 43
62 4
36 31
49 49
13 11
52 26
76 47
46 80
68 69
51 7
15 53
39 24
21 66
26 63
32 70
76 5
27 62
54 10
37 66
67 14
58 57
56 41
5 41
53 47
59 52
4 50
69 12
58 35
50 68
31 58
5 51
17 30
46 6
18 29
9 48
33 19
61 54
70 3
51 64
43 47
32 8
28 70
70 37
76 72
67 64
13 4
38 20
49 12
8 71
13 30
28 26
56 65
26 6
50 11
24 42
79 17
53 14
25 43
30 0
4 19
31 5
5 18
20 30
42 15
23 35
64 48
58 42
41 18
27 67
47 12
71 3
79 67
29 73
61 41
42 51
38 53
12 56
53 67
69 57
49 35
64 69
80 47
24 11
14 2
72 5
62 24
18 65
69 67
28 17
43 75
74 7
3 1
10 76
58 66
28 15
52 60
2 54
56 55
65 28
20 37
12 74
60 76
16 13
47 47
57 54
54 62
40 26
19 8
61 72
59 56
42 16
75 66
16 35
23 22
33 45
51 78
79 72
77 72
71 22
45 31
43 51
67 78
63 60
42 68
55 74
12 13
58 77
52 59
76 8
0 33
65 21
51 38
31 17
29 33
3 50
18 6
40 39
47 18
54 43
31 63
11 45
66 38
54 77
13 47
74 47
24 25
63 3
19 74
61 15
47 76
3 15
75 4
73 20
4 8
19 48
21 64
26 61
79 10
53 3
51 47
23 78
25 32
28 59
78 53
32 62
41 5
31 30
47 27
39 78
64 59
69 10
43 11
67 22
41 47
56 17
46 4
9 54
18 27
66 33
47 1
12 37
34 22
7 63
78 78
79 68
48 45
69 62
66 80
25 29
15 22
75 39
20 67
68 78
22 73
26 4
50 9
74 26
14 35
29 25
77 63
19 31
32 53
41 14
20 24
53 54
42 13
16 8
6 31
73 73
47 32
8 62
32 43
65 51
13 71
17 21
42 23
23 27
6 49
36 33
41 58
32 1
80 11
79 77
35 12
33 12
12 58
71 27
62 52
17 65
39 50
63 49
65 79
61 1
44 63
72 7
62 30
25 8
49 59
15 5
80 71
43 77
2 26
50 0
24 51
26 15
3 3
25 50
58 64
64 19
52 62
20 39
53 63
54 60
34 78
9 32
33 35
72 66
36 40
34 40
29 64
44 24
72 40
60 27
69 74
2 21
0 13
50 59
14 45
15 40
52 5
50 21
55 24
29 5
70 80
9 71
27 61
66 16
51 40
4 41
78 48
65 13
29 63
25 71
23 41
52 73
17 25
35 58
27 73
59 41
23 7
71 9
36 61
69 41
39 32
70 38
24 27
12 6
36 27
69 51
45 48
15 11
37 26
19 76
20 70
14 52
18 75
27 28
75 6
19 50
35 76
74 17
20 53
3 23
27 50
4 16
37 78
19 24
34 64
77 30
42 0
33 61
25 72
63 70
74 74
6 60
71 6
45 15
69 18
43 35
12 39
41 55
13 38
37 57
78 76
42 52
48 47
71 28
53 70
3 80
43 57
39 55
48 5
25 5
49 0
22 79
56 69
13 26
26 2
52 11
33 69
21 49
54 1
52 49
7 2
22 62
31 1
11 71
53 52
77 23
42 11
40 23
73 79
64 52
4 37
17 11
8 32
63 79
46 13
65 49
35 40
13 69
33 40
66 54
23 21
67 39
17 45
56 0
45 34
73 34
65 77
63 51
11 9
35 20
7 71
69 79
39 10
56 76
63 25
2 24
43 79
24 53
74 3
79 26
3 5
75 10
3 43
53 61
62 72
47 43
78 47
67 6
41 31
46 20
29 36
61 68
33 33
6 46
64 33
45 1
2 70
8 13
32 26
65 44
58 27
11 40
61 62
68 47
70 11
74 70
38 32
59 18
23 8
34 0
37 53
61 24
63 6
52 25
27 25
51 4
49 20
28 2
52 7
35 73
32 69
2 13
46 53
20 40
1 32
54 53
2 39
7 14
22 34
65 3
3 54
66 8
23 43
69 13
17 31
42 33
23 1
12 42
62 36
1 75
30 77
70 36
76 79
18 54
9 27
74 43
36 5
10 16
15 21
0 6
72 29
62 16
75 56
58 80
21 76
13 31
78 23
22 74
33 66
79 22
53 15
3 25
75 30
57 68
22 37
29 54
53 41
3 63
27 42
23 32
65 62
11 38
68 29
33 21
75 74
47 13
62 47
4 70
34 18
17 42
31 78
13 36
65 80
44 38
77 80
59 6
48 33
72 62
12 63
68 59
64 68
65 74
35 17
41 70
72 4
71 52
66 70
75 49
22 77
50 5
24 48
79 31
51 56
57 77
49 24
78 0
19 35
79 5
77 21
27 35
66 26
57 55
64 54
23 70
21 25
4 39
78 42
32 47
22 22
55 60
44 7
59 57
21 3
60 34
43 26
8 8
32 5
67 41
37 32
79 73
49 67
9 5
53 77
39 46
50 34
74 39
42 71
1 17
66 65
49 63
39 4
56 78
37 20
13 17
26 11
52 28
25 54
34 80
0 32
65 22
46 48
20 35
62 78
77 14
55 31
30 23
36 78
28 35
2 42
78 45
29 34
66 15
6 44
38 76
54 42
49 68
44 20
18 35
42 36
23 10
58 3
73 41
63 58
11 0
14 15
12 11
16 78
80 50
3 12
77 45
28 28
35 75
32 71
74 18
33 79
77 7
23 79
40 7
4 21
34 69
76 28
41 6
65 1
46 29
26 38
59 55
25 75
72 77
21 21
6 39
43 8
65 59
31 37
26 73
33 18
69 21
42 73
38 51
45 44
69 63
63 9
70 60
26 29
7 77
24 5
74 51
71 57
77 38
39 16
76 61
46 66
70 79
27 54
75 16
28 49
14 68
66 1
16 23
54 36
28 47
56 23
46 14
29 46
33 43
47 15
71 2
51 72
10 63
61 40
9 2
71 24
60 3
49 34
39 51
63 54
37 15
70 55
61 2
50 41
74 58
75 51
80 70
24 50
46 69
30 8
78 6
2 55
52 61
32 75
56 56
29 13
1 42
23 59
47 46
43 6
8 36
17 15
13 65
46 17
63 75
48 75
0 65
24 71
32 33
72 65
6 43
2 75
67 43
56 4
22 14
29 65
35 50
9 11
68 44
77 71
6 77
57 1
23 15
53 75
58 6
39 40
63 63
73 38
61 27
48 48
71 47
39 6
73 8
74 15
38 25
47 70
73 18
4 2
28 7
35 68
31 10
79 12
51 41
47 55
54 54
37 70
22 47
20 11
47 29
21 10
30 63
11 44
79 80
68 43
57 10
40 78
66 39
38 36
17 60
30 78
31 68
78 68
28 74
18 59
55 66
48 55
39 63
24 0
74 54
75 7
45 66
74 16
33 77
29 31
46 57
23 73
28 52
37 79
78 58
55 12
11 79
27 41
33 62
69 9
56 20
22 24
27 79
71 7
12 38
43 32
17 53
32 11
31 77
28 65
37 58
76 75
9 31
63 45
48 46
45 42
69 61
39 52
63 11
37 4
44 65
50 44
48 4
12 26
66 75
22 78
80 65
50 6
74 27
10 64
25 40
4 30
19 30

