0 112 590 3102 3564 3804 5891 6296 7318
1 1482 4376 4976
2 313 603 2533 4306
3 1354 1920 2917 4984 5071 5555 5664
4 317 2947 5036 5978 6618
5 45 106 297 709 908 1392 2619 3139 4113 4511 5534 7356
6 872 1400 1416 1963 2808 3036 4130 5049 5249 5442 5491 6232 7383
7 412 1072 1621 2082 2330 2518 2924 3470 3608 4619 5157 5308 6382 7475
8 3486 3701 4021 4022 4258 5444 6298 6409 7374
9 728
10 643 1842 2635 2654 3605 4459 6060 6597 6634 6755
11 15 560 1791 4466 5709 6268
12 2891 3153 3666 4946 5018 5603 5722 6642 6860 7141
13 89 190 933 1195 2436 3301 4757 5542
14 51 415 659 1109 1256 1633 1682 1761 2297 2395 2489 2632 2726 2838 3188 3264 3395 3434 4269 4582 4713 4835 5335 5458 5572 5711 5965 6037 6104 6277 6308 6401 6572 7222 7236
16 214 1696 2759 2855 2865 5280 6153 7160
17 2364 2679 6633
18 2567 4272 4519
19 322 1617 5906
20 105 1023 1179 5121
21 2123 3384 4606 5959 7467
22 330 2369 3048 6036
23 283 1257 1348 1900 2012 3118 3537 4421 5970 6473
24 162 1589 1699 3982 5214 6011 7107
25 1874 1876 7144
26 74 368 467 646 650 1997 2886 3170 3532 3581 3869 4228 4259 4338 5076 5095 5404 5476 5552 5617 5925 6360 6426 7097 7333
27 252 1669 2382 3017 3805 3891 4087 4205 4912 4975 5437 5958 6108 6613 6960 7267
28 1295 2403 5485
29 245 2723 3717 5703 6833
30 266 1138 1250 1824 2333 4954 5039 5518 6144 6322 6702 7122
31 2948 3008 6446
32 1580 3082 5704
33 157 227 358 1338 1547 1583 2385 2479 2483 2673 2701 3040 3135 3662 3936 3949 4050 4357 4540 5030 5576 6687 6698 6783 7439 7474
34 1490 5909 6388
35 813 1401 1689 1784 3009 3154 3250 3846 3983 4843 5196 5226 6089 6512 6791 7033 7284 7464
36 899 1152 1499 1581 3838 5728 6381 7320
37 2061 3274
38 761 3639 5763 7191
39 1369 6081 7411
40 2718 3553 6043 7215
41 3198 3320 3951 4326 5873 6247 6267 6766
42 1016 2833 5412
43 679 3652 5740 6943
44 941 1133 2235 3596 3808 5298 6944
46
47 1961 5637 6527
48 1275 2258 5371 6248
49 2290 6815 7449
50 2118
52 550 916 3542 4747 4983 6721 6999
53 423 3055 4065 4753 6513 6748 6916 7197
54 2256 4576 5884 7057
55 649 1202 2267 2795 5247 6677 6945 7096
56
57 3421 6181 6278
58 148 2271
59 1164 3396 5502 6096 6207 6624 6810
60 1187 1481 1679 2181 2770 4041
61 1496 1835 2587 7018
62 1173 4360
63 3371 5047 6489
64 1096 3119
65 1973 2710 2831 5708
66 263 898 2484 3759 5107 5656 6333 6479
67 599 4079
68 1069 1527 7156
69 750 1144 1417 2951 3187 3736 4775
70 990 6839
71 323 1322 1837 2625 2825 3149 3774 3911 4722 5101 5327 5575 5681 6841
72 1774 1931 3108 4533 4884 5706 6515 7055
73 434 1797 2019 2035 2713 4855 5388 5675 5797 5867 5947 6005 6424 6720 6913
75 309 567 808 4746 5169 5207 6844 6931
76 544 3702 5418 7301
77 4282 6451
78 853 4650
79 2270 4842 5790 7419
80 2025 2367 4649 5195 5215
81 1755 3571 5364 6261
82 6349
83 3127 5443 7366
84 486 764 1176 1579 2049 2156 2705 3636 4350 4445 4461 6317 6496 6998
85 2482 4623
86
87 1731
88 854 1789 2108 3330 4250
90 1549 1866 3799 4411 6715
91 430 1063 1223 1239 4345 4844 5349 5663 6463 7294
92 1387 3334 3876 4688 5115 5395 5462 6097 6124 6152 7111 7421
93 505 747 751 1244 1887 3269 4248 5221 5357 6126 6555 6637 6732
94 3853
95 2376 2399 3312 3994 4860 4953 5730 5744 6420 6883 7135 7459
96 655 2360 3435 4819 4841 6439
97 1041 2269 2978 3420 4284 4475 4797 5198 5857 6577
98 496
99 118 820 2103 2678 3445 5670
100 209 1003 2095 2550 3429 6156 6847 7404 7491
101 614 5578 5772
102 970 2677 3074 6525
103 6300
104 7387
107 3399 4349 4702 5793 5829 6002 6348 6712 6759 7036 7176 7290 7322 7432 7492
108 2066 5570
109 939 2241 3656 3760 7471
110 474 2735
111 4274 5608
113 1272 1352 2008 2986 3460 5338 5448 5748 5821 7435
114 1013 1304 1712 1838 2412 2447 3201 3924 4342 4392 4678 5841 5957 6559 6681 6814 7226
115 319 1990 2496 2530 2542 2995 6358 7413
116 521 2320 2557 5456
117
119 178 887 2809 3878
120 1205 2348 3311 3711 4222 5233 5311 5314 5591
121
122 1494 3506
123 661 680 767 1451 1620 1996 2897 4300 4322 4607 6372 7455
124 144 4546 4777 5324 7250 7380
125 1001 1315 1493 1656 2006 2231 2685 2968 3126 3814 3907 4830 4879 4892 5162 5253 5733 6307 7017
126 1750 2062 2696 3849 4372 5429 6477 7172 7381 7478
127 475
128
129 1371 2318 3412 5938 6689
130 241 2556 5920 7423
131
132 469 1217 2247 2304 2842 3079 4348 5004 5082 6211
133 1167 1296 2022 2406 2904 3280 4639 5212 6260 6725 7385 7495
134 999 1219 1221 1326 2003 2195 2521 3940 3942 4207 4545 5023 5504 5945 5948 6160 6622 6719 6871 7326 7407
135 2588 4155 5563 5699 6552
136 1987 2783 3236 3610 4157 5333
137 2111 2133 2207 2634 3562 3675 4238 4671 4808 5024 5241 5513 6758
138
139 476 849 910 3848 4290 4334 5949 7376
140 654 896 2563 2742 3000 3195 4038
141 253 6218
142 531 1865 6201
143 602 1037 3275 3471 3698 3927 4782 4973 5220 5399 6018 7208
145 1570 2551 3180 3196 5224 5942 6350 6478 6774
146 537 554 997 1118 1121 1143 1966 2817 3013 3425 4019 4196 4240 4627 4667 5094 5144 5268 6019 6032 6629 6800 7133 7395
147 961 2280 2595 4784 6784 7004
149 211 327 463 712 917 2094 2275 4908 5234 7153
150 1008 2002 2268 2321 2873 3132 3168 3216 3324
151 272 446 5199
152 1015 2471 2606 4765 4831 5987
153 1374 2192 5533 6100
154 895 2063 3086 4863 4960 6705
155 802 1753 4692 5885
156 1129 5814 6876 6984 7298
158 512 1039 1361 1884 1972 2810 4017 4263
159
160 4399 5085 6722
161 399 1237 1595 3575 3844 4525 5414 5795 5863 6179 6497
163
164 801 1893 2073 2091 2561 2801 3158 3345 4044 4118 4403 4796 5067 5171 5977
165 4171 5252
166 664 1943 2015 4092 4731 5451 5785 5870 6242 6475
167 618 1046 1208 3322 3792 4547 6284
168 963 1525 2039
169 922 2954 3558 3661 4197 6467
170 579 1270 4093 5398 6558 6644
171 1117 3985 4365 6941 6966 7063
172 354 1611 6168 6904
173 295 927 1372 2228 2970 4693 5191 7181 7213
174 2337 2967 3370 4273 4363 4998 5135 5869 7071
175 5791
176 324 410 1337 4740
177 4734 6114
179 1365 2407 7281
180 1419 2702 5819
181
182 353 1742 2255 2322 3014 4497 4990 5352 5782 6138 6977
183
184 3209 6849
185 4629 6576
186 3722 4109 4110 5165 6627 7489
187 1078 1230 2580 3128 3750 4191 4677 5372 5515 6628 6955 7169
188 788 1156 2209 2832 4640 7003 7110
189 275 3956
191 482 4208 4256 6777
192 2760 3810 6440 7285
193 718 1683 2055 2888 3409 3913 4940 5430 5966 6397 7145
194 691 1854 5341 5384 5968 6241 6807
195 281 708 2286 3189 3634 4559 5530 6234
196 1846 1879 2043 3044 4437 4596 4821 5639 6353 6355 6655
197 536 754 861 978 1306 2088 5473 6324
198 425 431 852 1308 1479 2340 2574 2991 3413 3458 4890 5077 7371 7438
199 1663 2692 2868 3680 4598 5345
200 1830 1899 2405 2414 2573 3197 3906 4534 4642 4849 5889 6266
201 413 462 1917 2329 3765 4120 4578 4889 6255 6443
202 337 3034 3852 6098
203 1014 5843
204 377 2958 3560 4417 5163 5688 6383 6991 7265 7470
205 1059 1946 2554 6064 6116 6737 6762 7116
206 2566
207 3638 6441 7119
208 1042 2541 4539 4691 5201 5566 5770 5809 6103
210 265 866 1548 1582 3142 3376 5695 5700 6345 7315
212 606 823 837 1845 3004 4854 6052
213
215 833 979 2205 2342 3238 3333 5758 6773 7094
216 792 4891 6414 6935
217 355 2230 2359 3143 3898 5454 5618 6123 7052
218 2467 2966 3326 4321 4336 4985 6734 6796 6842 6993
219 1388 5359 6834 7028
220 605 2578 4704 6147
221 1316 1423 1434 1518 1957 2316 3720 5126 7093 7297 7457
222 268 859 1252 1264 3672 3970 4091 5237 6771 6793
223 1529 1634 2189 2485 2691 3776 4789 6816 7289
224 4048 5377 5853
225 619
226 954 1174 1785 3513 4231 5520 5549 6491 6946 7126
228 2965 3509 7362
229 1019 1229 1605 2032 2709 3788 5472 5643
230 1345 3232 6067 6273 6537
231 731 1414 3920 4429 4562 5434 5682 6723 7184 7473
232
233 400 673 864 1319 2225 4198 6323 6836
234 2523 4339 6146 6239 6406 6455
235 6789 7359
236 1588 2054 2455 3379 3822 3825 4645 5106 5129 5289 6027 6449 6929 7340 7367
237 1181 1406 1798 1868 2217 2366 5152 7059
238 755 1707 2631 4543 4779 4823 7405
239 389 1079 2956 3133 3882
240 3147 3633 3773 5227 5286 5528 6155
242 303 2415
243 420 1200 1209 1513 2232 2351 2534 2748 2782 3137 3162 3282 3584 4267 4330 4978 5016 5787 6985 7319 7354
244 4245 4586
246 1710 1947 7188
247 401 580 1010 1158 1678 1941 2765 3091 3152 3719 4286 4728 5943 6412 6711 7157
248 638 5835 5950 7483
249 6203 7229
250 919 4981
251 274 968 1642 1995 2260 2331 3173 3337 3691 4505 5259 5358 6484 7014
254 1469 2443 4031 7259
255 3237 3732 5759 6495 6770 6918 7077
256 491 836 1273 1927 1985 2668 3207 3303 5340 5440 6220 6794 7103 7416
257 2458 2775 4040 4848 5271 6536 7482
258 1776 2106 3784
259 1028 1162 1619 1708 2176 3690 5231 5305 5780 7085 7091
260 2251 2829 3707 4378 4624 5539 5657 5871
261
262 730 2373 3117 3130 3569 3755 4116 4895 4927 6154
264 408 1925 2352 2988 3618 5888 6272 6795
267 2254 6056 6621
269
270 7056
271
273 1599
276 787 1552
277 1516 5061 5194
278 637 4059
279 1432 1801 1858 2167 4106 4579 7051
280
282
284 967 1473 2444 3059 3843 5826 7261
285 440 5580 6920
286 443 1702 1806 1834 2319 2721 3124 3481 3866 4430 4433 5330 5562 5673 5834 5992 6504 6854 7252 7347
287 2690 2943 3366 4762 5511
288 307 1590 3899 4234 5732 6084
289 988 1379 2011 3129 3976 4660 4949
290 498 1327 1385 1895 2404 2437 4955 5078 5560 7249
291 3547 6421 6456
292 1560 2653 3039 4146 7118 7406
293 551 625 1166 3267 4235 5361 5548
294 5073
296 768 805 1188 1585 2502 3031 3961 5924 6283
298 501 1051 2867 4787
299
300 2821 5723 6545 7140
301 304 332 2007 3359 5500
302 773 4460
305 845 1012 2021 3570 4793 5495
306
308 5125 5849
310 569 816 1151 1780 3665 4180 5017 6131
311 2300 3169 3947 4904 5010 5509 6453
312 428 1919 2194 2633 3579 3824 4193 4239 4251 4347 4873 6048
314 2720 4697 7106
315 4218 4526 4707 4939 5132 5800 6088 6982
316 2048 2648 3801 5774 7223 7292
318 1701 5222 5291 5684 6285
320 1342
321 381 880 1050 1254 1336 1411 2171 2238 2314 2918 3194 4043 4409 4918 5140 5356 5865 6141 6567 7100
325 336 760 928 1234 1593 1790 4111 4557 5013 6782
326 6169
328 2249 3973
329 624
331 6235
333 1665 6474
334 494 2981 5547 5612 5621 6316
335 2843 3857 4626 5103 5266 6214 7245
338 3423
339 1795 3191 3629 4077 5276 6038 7207 7324
340 490 652 2876 3721 4853 5081 7282
341 2045 2745 2784 3344 4451 4874 5080 5899
342
343 1215 2227 4415 4683 4997 5503 5529 7450
344 3343 3871 4178 7393
345 6619 6739 7402
346 1491 1543 2196
347 402 3815 4027 4209
348 3984 4774 5628 6493
349 1094 3051 6063
350 3073 6286
351 1382 1833 2327 2362 4298 6660
352 1956 3809 4070
356 2767 3033 6895
357 1084 2826 3151 4696 5447
359 489 1268 1573 2036 4524 5450 6094 6288
360 543 639 1165 2629 3546 3685 3713 4333 4575 4920 5594 6198 6289 6310 6311 6361 6874
361 874
362 1347 3551
363 418 442 1006 1073 1980 3095 3754 3998 4278 5489 7497
364 806 862 1368 2169 2600 3005 3568 3845 4520 4864 6408
365 642 4400 4450 4613 6429 7453
366 7496
367 1157 7312
369 623 669 2005 3654 3934 5236
370 1220 3090 4959 5130
371 6867
372
373 860 1279 1487 1751 4617
374 3331
375 4455
376 453 2128 3155 3595 4257 6112
378 516 942 962 2016 2158 2380 2853 3087 3561 3643 3789 4385 6676 6933 7124 7139 7452
379 628 3787 4444 7481
380 1218 1486 4727
382 452 918 1524 2135 2307 2465 2630 2740 3354 4878 6314 6590 6880 6900
383
384 5848
385 851 1186 2013 2139 2409 3767 3909 5248 5940 6033 6553 6669 6869 7283
386 1860 5332 6150 6831
387 955 1146 1623 1772 2504 3478 4991 5322 7264
388 855 1080 1439 1610 1885 3649 5326 6337 7433
390 5952 7372
391
392 3880 6520 7086
393 2463 2604 3779 4396 4769 6194 6667 6852
394
395 2283 2911 4371 5175 5193 5868 6083
396
397 2863
398 796 897 953 1356 2244 3019 3910 6244 6303 6306 7204
403 670 2462 3480 4302 4694 4829 5154 5721 6384 6501
404 4370 4601 5161 5262 5339 5400 5903 7034 7436
405 6901
406 1461 1883 1922 2191 2338 2804 3770 4404 5466 5604 5607 6878 6952 7020 7445
407 4064 4431
409 734 3660 4142 5177 6085
411 766 1477 1521 1831 2449 2627 3368 3408 3922 4987 5362 5366 6632 7032 7044
414 995 1695 3388 5762
416 1562 2239 2470 2772 3536 4281 4369 5288 5616 5789 6532
417 1891 3865 7138
419 877 1537 1967 2341 2612 3867
421
422 1964 2432 2875 4202 5028 5063 7443
424 598 883 1395 1694 3587 3893 3964 4687 4781 5436 5985 6346 6724 7238 7344
426 441 1465 1584 1641 2835 3066 3136 3683 4095 4147 4368 4604 4689 5290 5631 5974 6045 6442 6524 6581 7199 7305 7357 7466
427 2813 3730 4838 5110
429 1647 3310 4622 4695 6521 6541 7338
432 5062
433 1886 4470 4515 6987 7001
435 1687 1873 3026 3856 3933 4355 5707 7098 7499
436 7060
437 2197 2605 3495 3699 3839 4051 4100 4241 4794 4956 6954 7143
438 1265 1993 2512 2522 5923
439 528 3109
444 1049 6092
445 2610 4175 4802
447
448 2836 3489 4316 4730 6301
449 1929 2059 6148 6679 7163
450 786 1136 1653 2250 4484 4764 7065
451 520 578 2790 2798 5342 5487 6039 7053 7287
454 1510 1820 2220 2266 2388 2753 2916 5755 6197 6411 6902
455 1098 1829 2656 3749 3921 3968 4724 4919
456 459 626 1099 2704 6281 7378
457 3626 3709 4509 5635 5990 6488
458 481 1290 1827 1875 2424 2650 2830 3336 3406 4979 5114 5223 5225 5776 5935 6302
460 811 1031 1216 1226 2090 2137 3113 4013 4062 4107 6090 6341 7335
461 2766 4313 4611 5685 6055
464 2153 6075 6258
465 3297 4014 5808 6216 7180
466
468 915 1081 1204 1546 4069 5209 5376 5389 5465 5905 6370
470 2910 4199
471 882 1601 1645 4307 5347 5573 6166 6747 7054
472 511 1716 1729 3712 4483 5184 5411 5475 5856 7469
473 556 2582 2969 4555 5379 5394 6573 6583 6753
477 2500 2999 3050 3456 3706 4114 5160 5474 5686 7394
478 6393 7125
479 2724 4074 4752
480 821 1454 2161 3174 4785
483 4173
484
485 4710
487 2144
488 1748 2303 2645 3821 3860 4243 5620 6499
492 1965 2681 5263 6693
493 582 906 2038 2098 2477 4225 4992 5737 5862 6140 6965
495 1026 2708 3505
497 575 1706 2168 2543 3609 3847 3888 4108 4394 4569 4776 5038 5092 5836 6718 6917
499 1413 5671
500 634 1404 2165 3110 3472 4067 4661 5749 5963 6819 7342
502 514 1351 1672 2946 4280 5267
503 879 914 1812 1861 3298 3525 4149 5719 6109 6736 6817 7136 7348 7397
504 3529 5669
506
507 3166 5122 6436 6626
508 5729 6492 6838
509 959 2899 5402
510 4549 5660
513 2912 3979 4388
515 819 884 956 1898 3452 3613 4659 7047 7239
517 1034 4004 5918 6020 6049
518 4859 6394 6958 6995
519 692 7148
522 3217
523 2396
524 1076 2042 2639 3624 6107 6592
525 935 6928
526 3053 7216
527 2982 3268 3651 5876
529 1511 2343 2646 3768 4720 4791 4961 5113 6028 6699 6967
530 1651 1659 2065 2145 4387 4464 4565 6320
532
533 1251 1937 2323 5930
534 565 1139 1981 2023 2058 3522 4804 4907 5825 6187 7104
535 1470 3830 5275 6586
538 1624 2119 2516 2707 4211 4635 4672 5653 6366 6454 6821
539 4628
540
541 1522 5893
542 2402 2980 3103 3748 4800 5285
545 1488 2242 4292
546 1180 1655 2666 6226
547 965 1403 2175 2950 6213 7081
548 2185
549 2050 2381 3892 3915 3971 4182 4260 5064 5105 6087 7058 7171 7195
552 903 1005 1189 1519 1675 1821 3107 5467 5577 6892
553 1811 3029 4141 6078 6375 6387
555 799 1114 1506 2439 2665 4063 4279 4501 4714 4732 5346 5401 6017 7244 7280
557 1578 1703 3895 4056 5752 5901
558 2478 2593 3171 4395 6299 6915
559 923 1120 1253 3402 3764 4379 4625 4974 5042 5312 6518
561 3287 4880
562 2520 3071 4530 4852 4971 6184 6509
563 1664 4084
564 3257 4936 6818 7120
566 1329 2190 3514 6287 6657
568 1857 2040 2900 3199 3332 3590 6021 6162 6604 6617 6757 7155
570 1007 1606 1909 4122 4138 6601
571 607 1721 1758 2157 2334 2524 2637 3346 4066 4597 5561 6790
572 1757 1872 2640 2874 3992 6652
573 2584 5735 6013
574 1532 1622 5230 5934 5994 6236 6321
576 3566 4585 5127 7232 7494
577 1269 1566 1736 1760 3179 4081 5777 5981 6891
581 1602 2287 3181 3473 3594 3686 4226 4813 4818 5051
583 2514 4246 4535
584 1107 1949 2860 7231
585 1285 1745 3070 3794 6364 6539 6974
586
587 1657 1934
588 1783 7368
589 2892 5059 5725 5852 6623 7210
591 1794 2087 4832 5284 7242
592
593
594 1184 2576 2672 3778 6450 7186
595 722 1396 1654 2083 2984 5133 5192 5210 5479 5583 5766 5798 6942 7164 7237 7288
596 4408 5845 5912
597 838 1070 1472 2837 3296 3353 4933 6367 6533 7037 7472
600 5769
601 888 1271 1366 1722 2026 4652 5328 5589 5648 5674 6400 6589 6763 7390 7403
604 4037 5630 6115
608 1125 2428 2446 3400 3515 4456 6173 6953 6957
609 1636 1713 2024 2816 4195 4603 5996 6223 6740
610 743 1068 3011 5044 5927 6437
611
612 2577 2839 2953 3096 3161 4046 5922
613 704 1159 2335 2930 3667 4911 5003 5138
615 1154 3163 3182 4232 6542 6656
616 1768 2510 2693 3016 3664 3988 4527 5803 6113 6392 6585 6885 7233
617 3674
620 2246 3105 5588 6767
621 3510 6986
622 1248 1286 1881 2694 3627 5536
627 1730 1804
629 1983 2425 2622 2893 4206
630 779 1628 4328
631 1065 1586 2638 3931
632 2815 2827 3620 3837 5109
633 1376 3738 5764
635 1598 2752 4648 6149 6859
636 947 1291 7150
640 1724 2513 2887 3912 4221 4412 5123 5622 6853 7064 7225
641 4735
644 2818 2985 4881 6840
645 4016 4386 5048 6459 6682
647 1309 2974 6227 7422
648 713 6591
651 1704 3917 5022 6865
653 3919 4323 6202
656
657 1092 2841 3417 3427 4944 5239 5915 6683
658 3602 4327 4615 5457 5788 7067 7299
660 886 3623 3932 4020 5406
662 2538 3221 4711 5200 5997 6465
663 2555 3549 5005 5532 5907 7082
665 1324 2047 3850 5818 6607 6997
666
667 1882 2734 5242
668 1089 1276 2558 3823 5278 5598 5866
671 2221 3644 4541 5416
672 924 3178 3448 7486
674 2764 3916
675 2078 2299 2689 4112
676 1844 2150 2872 2989 5522 5851 6328
677 1214 3439 6269 6615 6914
678 1894 2072 2173 2743 3401 5089 5302 5717 6606
681 3758
682 4025 5538 6304
683 3670
684 720 2848 5493 6208
685 815 3863 4318 5074 6881
686 3061 3528 6803
687 3630
688 892 2498 4869 6396
689 2216 3918 7030
690 1360 5773
693 1303 2358 6259
694 1111 2623 3997 6671 7487
695 1614 1715 3780 4487 5421 6825 7112 7408
696 1344 2700 4296 5172 5844 6529 6768 6961 7263 7275
697 960 4996 5679
698 2457 2549 4010 4875 6938
699 1577 1977 3241 4587 4676 4945 5204
700 1924 4001 5006 6462 7440
701 2332
702 706 1408 1756 2211 2408 2822 3832 4474 4817 7198 7434
703
705 2397
707 2583 3491
710 2146 4335 5649 5678
711 1424 4749 6704 6976
714 3289 3650 6031
715 964 1020 1282 1437 3390 3772 5319 5624 5761 5847 6074 6279 6293
716 3944 7352
717 3735 3877 3901 4381 4680
719 752 2778 5046
721 3487 3526
723 1131 1688 2004 3213 3879 4172 4865 6356 7192
724 1407 3338 5370
725 1515 1535 3987 4706 5360 5425 5839
726 4295
727 991 1033 1130 1686 1933 2172 2655 2669 3230 3383 4096 4532 4654 5240 5365 7162 7254 7461
729 1415
732 763 1091 2288 2473 4236
733 1317 2717 2792 4151 4571 6329 6786
735
736 3790 4150 4154 5211 6071 7012
737 2053 3601 3745 4503 4858 6835 7462
738 1938 2346
739 2344 2433 3063 4104 5541
740 2115 4574
741 3030 3205 5543 7270
742 1047 3112
744 1810 2378 4435 4620 6830 7007
745 1058 1492 6189
746 1908 2545 3084 3622 3693 4471 5182 6117 6593
748
749 1110 1363 1468 1813 2018 2051 2100 2435 3032 3045 3726 3817 4036 4060 5058 5208 5590 5754 7358 7431
753 1574 3245 4422 5117
756 6230
757 1568 1840 4204 7196
758
759 1210 4490 5778 7167
762 3751 5045 5817 6522
765 1877 6290 6354
769 2248 2747 3589 4489 6174 6578
770 2487 5087
771 1036 1740 1971 2147 4076 4219 5792 6526 6649
772 1101 3461 5141 6582
774 1495 1940 6041 6646
775 1288 1431 1533 2203 2820 3072 3360 3742 4009 7246
776 1471 1528 2828 3212 3914 4883 4903 6120
777 7217
778 5830
780
781 2546 2553 3416 4473 6864 7151
782
783 2889 7221 7337
784 2112 2565 2908 6610
785 5654 6137
789 856 1462 2122 2224 2372 3475 3840 4542 4698 4721 4815
790 3974 4925 5633 6708
791 1235 1386 1681 1954 2431 2736 2774 3140 3671 5833 5879
793 890 1343 1643 1905 2686 3697 4045 5317 6511 6707
794 1055 3990 6129
795 1141
797 2159
798 1505 4923 5205
800 1048 2186 2226 2763 4123 6325 6376 7417
803 5445 6911
804 2132 2262 3300 6416
807 2188 3689
809 4485 4827 6182
810
812 5890
814 1261 1502 2075 4447 5420
817 4548
818 3227 3540 5944 6253 6873 7005 7069
822 2751 3958 5075 5431
824
825 2769 3075 5455 5896
826 3208 4867 6066 6091 6932 7183 7278
827
828 2957 3254 6772
829
830
831 1198 3253 4518 5150 5606
832
834 931 2298 5147 6703
835 2215 2987 4573
839 2722
840
841 3962 4494 5060
842 1556 1575 1974 3210 4102 5174
843
844 2941 3975
846 1475 1802 2126 3283 3375 4833 5257 5310 5517 5557 6204 6780 6909 6979
847 1460 3145 3167 3278 3941 3946 4152 4153
848 3341 4717 4937 6422
850 1904 2643 2963 3939 6565 7158
857 893 3023 3293 4820 5228 7293
858 4723 6077
863 1930 2116 2788 6538 6868
865 2117 2430 2490 3121 4726 5254 5659 5895 6363 6460 7073 7295
867 3255
868 1155 3172 5019 5235 6068 6940 7074 7114
869 4413
870 4871 5301
871
873 4905 5057
875 1998 6015
876 2658 2715 2870 3598 6742 7115 7321
878 1762 5410 6125
881 5238 7349
885 1182 6756 6851
889 2528
891 1816 3292 3904 4358 4773 4957 7203
894 993 1298 1863 3381 3449 3607 4164
900 5052
901 2384
902
904 3385 3467 5484 5941 6937 7168
905 6648 6792
907 5983
909 1267
911 3955
912 2990 7240
913 1293 3687
920 1871 3261 6190
921 2507 3574 4088 7317
925 5309 5385
926 1266 2104 3159 3214 5093 6832 6919 6988
929 7444
930 2777 3484 5368
932 2199 2204 4609 4989
934 1591 1805 2041 4510 6990
936 1422 2902 2976 3223 3600 4090 5951 6516 6690
937 2885 3580 6318
938 2936 3518
940 1430 1635 2854 3318 3862 6434
943 3284 5712 7463
944 2616 3349
945 1880 2799 3002 5409 5753 6380
946 1698 2445 3545 4264 4736 5392 5432
948 994 1517 4210 6145
949 2379 2909 3431 3902 4414 4479 4506 4899
950 2834 6331 6403
951 5953
952 3437 4453
957 2469 3193 3705 3724 4315 4467 4716 5512 5760
958 5155 5181 5537 5827 6675
966 1358
969 2501 6697
971 2028 3054
972 1814 1918 4701 4807
973 3710
974 1435 2279 2519 4137 5264 5449 6294
975 4442 7304
976
977 5694 5710 6498 7341
980 7218
981 2121 2934 3648 5037 5099 5600 6714 6806
982 1410 2164 2354 2357 3177 3612 6905 7332 7448
983
984 1889 4828
985 1170 1508 2937 5505 6059
986 4651
987 4424
989 3483
992 4427 5415 6062 6185
996 3094 3270 3812 4168
998 4868 5294 6132
1000
1002
1004
1009 1501 2737 4591 4750 7437
1011 5269 6312 7105 7174
1017 1726 1808 3265 4353
1018 1936 2581 4767 5299 5419 5881
1021
1022 1744 2240 2383 2503 2785 3076 4686 5128 5408 5595 6188 6978
1024
1025 5999
1027 2847 4255
1029 1067 2030 2339 4162 5120 5665 6402 6897 7420
1030 1852 2085 3247 3870 4144 4439 4814 5751 6386
1032 1890 2347 3548 3647 3894 4374 4994 7255
1035 2687 2858 3463
1038 1305 2497 4012 4026 6808
1040 3394 4405
1043 2052 3078 3796 4254 4608 4980 6105 7355
1044 1402 2096 2163 2671 4799 5641
1045 1102 1538 2398 4337 4390 4397 7092
1052 4737 5393
1053 2411 2733 2994 3959 4297 4436 5306 6972
1054 1428 2068 2317 3442 3572 3716 4203 5245 5765 6647
1056 3065
1057 2129 3046 3308 4993 6608
1060 1377 1397 1420 2001 2264 2336 2812 3092 3228 3476 3521 6196 7309
1061 1822 3373 3900 4463 4715
1062 1836
1064
1066 3089 3658 7117
1071 2927 3028 4970
1074 2459 2880
1075 1314 1639 5396 7384
1077
1082 1381 1984
1083 1735 1747 2819 4124 4140 4870 5303
1085 4015 4047 5501 6566 6673 6776 7212 7389
1086 2131 5697 5913 6205
1087 2676 3464 5478
1088 2124 3886
1090 2683 3279
1093 1559 3619 4810
1095 5142 6643 6805
1097 1119 1720 2067 2453 2495 3183 4641 4834 5956 6517
1100 3122 3704 5034 5960
1103 2787
1104
1105 2609 4926 5405 6823
1106 4492 5521
1108
1112 1393 3249 3798 4550
1113 7026
1115 1764 3583 6969
1116 1357 2575 3037 3246 3519 4758 5336 6804 7272
1122 1441 2033 2421 5741 7127
1123 4739
1124 2064 6639 7090
1126 3248 5015 6053
1127 4136 5579 7477
1128 1819 2651 3156 3277 3930 4616 5097 6695 7102 7149 7211 7262 7365
1132 1555
1134 1705 2114 3497 4462 5559 5802 6004
1135 1262 1509 4029 4824 5145 6418
1137 4670 5084 6256
1140 1576 1928 3573 4938 5417 5926 6080 6175 6872 7446
1142 1297 1540 1746 2295 2416 3418 3800 4425 4477 4915 5661 6616 7159 7313
1145 3498 6143 6343
1147 3018 3302 4496 6270 6330 7248 7458
1148 1507 2170 3068 3673 5482 7277
1149 1433 2274 3841 4803 6008 6678 6910 7327
1150
1153
1160 3294 6061 6250 6658 6727
1161 1697
1163
1168 1799 3861 4005 4276 4566 6862
1169 3398 5801
1171 1557 3681 4443 5693
1172 1362 2309 2636 2942 4201
1175 1398 1612 2996 4913 4947 6444 6951 7132
1177 5687
1178 3474 3826 5605
1183
1185 1249 3271 4103 6674
1190 1213 2136
1191
1192 1313 2662 3024 3762
1193 5380
1194 5571 6291
1196 1284 4039 6640 7454
1197 2010 4894 5041 5065 5354 6710 7369 7396
1199 1463 1778 1948 2243 2913 4407 4504
1201 2326 2387 3378 5610 6022 6651
1203 3356 6240
1206 7173
1207 1567 2684 2849 3288 3319 3492 3859 4057 4638 4934 4950 5316 6206 6224 6713 6893 6922 7418
1211 7412
1212 1346 2193 2850 5634
1222 4145 5701 6101 7429
1224 5206 5424 7039
1225 4024
1227
1228 1680 1786 1914 3746 4165
1231 3588 6472 6556
1232 3352 5131 5277 5954 6347 6588 6653
1233 2695 2716 3242 3520 5426 7128
1236 4778
1238 3085 4377 4458 5531 5568 6584 7388
1240 3714 4877
1241 2526
1242 1671 2509 2962 4283 4643 4928 5050 5293 5602 5645 5696 5813 6119 6305 6686 6828 6971
1243 1982 2143 2506 3263 3351 3659 4285 4538 4876 5203 5864 6128 6506 7311
1245 3239 3965 5153 5363 5452 5516 5582 5861 6006 6570
1246 2429 5261
1247 2187 3203 3530 3875 4941
1255
1258 2940 4187 4249
1259 4682
1260 2152 2915 2938 3444 7179
1263
1274 2979 3380 3950 4507 5932 6111
1277 3550 3872
1278
1280 2278 6464
1281 4866 7306
1283 1738 2312 4303 4631 4972 6531 6630
1287 1349 1596 2877
1289 6980
1292 2208 2356 2371 4176 4481 4679 4759 6706 7134
1294 1989 3058 5032
1299 2602 2901 3441 5967
1300 1869 1950
1301 1850 6692
1302 1330 1604 3694 6579
1307 3407 7015
1310
1311 2796
1312 4097 5219
1318 3831
1320
1321 4719 7154
1323 2223 3077 3365 3903 5677 6405
1325 4072
1328 3669 6494
1331 1994
1332 3021 3285 4099 4426 4690 5626 6093
1333 2499 2564 2906 4850 5640 5727 7375
1334 2160 3527 3795 5931 6528 7045 7070
1335
1339 2149
1340
1341
1350 1409
1353 5453
1355
1359 1545 2862 3695 6749
1364 1867 7399
1367 3164 4528 4847 5134
1370 3043 3093 3361 4033 5054 5939 7257
1373
1375 7391
1378 3224 4897 6404
1380
1383 3446 4517 6907
1384 1897 3632 6178 7351
1389 1779 2866
1390
1391 4681
1394 1685 1853 2597 2598 2614 2738 4252 5623 5666 7426
1399 2977 3766 4161 4709 4909
1405 5066
1412 2426 4982 6550
1418
1421
1425 5369 7175
1426 2618
1427
1429 2802 4861 5718
1436 5734 6246
1438
1440 1561 2440 3756 6507
1442 1531 2579 6549
1443
1444
1445 4754 5499
1446 1677 1714 2102 2375 2762 3389 4999 5088 5297
1447 2675 3734 5496
1448
1449 3500 3966
1450 5486 6934
1452 3340 4822 6237
1453 2174 2350 4910
1455 3539 3743 4167 4312 4346 4634 4673 4742 5213 5962 6587 7447
1456 4851 5427
1457 2218 4311 6212
1458 4030
1459 1480 1503 3485 3952 4244 4495 4901 6165
1464 3367
1466 1630 4291 4653 5878
1467 5382 5585 5955
1474 1855 4023 4134
1476 1828 2755 3718 5508
1478
1483 4343 6297
1484 2794 5166 5250 5313
1485 3186 3552 3616 3645 3995 5186 5824 5883 6054 6508 7041
1489 3723 3908 7325
1497 4930 5002 5497 7346 7490
1498
1500 3884 5807 6927
1504
1512 5806 7048
1514 3080 4163 4969 7300 7485
1520 2289 6000
1523 4035 5667 6130 6159
1526 5551
1530 3482
1534 1600 1667 4011 6012
1536 2712
1539 1907 2097 2202 4216 4391 4772 5180 5609
1541 2154 2259 3948 4454 6170
1542 6636
1544 1788
1550 3440
1551
1553 4406 4662
1554 2983 2992 4644 6716
1558 1607 5461 6861 7161
1563 2074 3881 4685 6200 6564 6574 6886
1564 4331
1565 3185 3783 5320
1569 2219 2365 4882 6177 6295 6417
1571 4179
1572 3047 3099 4476 5550 6415 7109 7130
1587 3692
1592 3585 4133 6743 7251
1594 2823 3725 4132 5477 6733 7373
1597
1603 4194 4420 5020 5300 6121 6233 6265 6432 7099
1608
1609 2105 4741 5805
1613 1911 3299 4760 4935 5256 5702 7329
1615 1739 6079 6595
1616 1968 2092 3382 3597
1618 4943 5736 6026 6271 6744 7241
1625 4636 6342
1626
1627 6065
1629 1727 5116 6769
1631 1637 4135 5218 5470 5823 5875 7235
1632 5008 6257 6575
1638 1825
1640 1969 4761 5040
1644 1955 2697 3114 3387 5337 5937 6292 6726 6797 7274
1646 6385 7061
1648
1649 1878 2056 4223 5386 5601 7076
1650 5908 6023 6102 6183 6827 7000 7201
1652
1658 3411 4105 4329 5014
1660 2698 3925
1661 3504
1662 3226
1666 1749 2464 3038 4968 5584 5910 6176 6889 7456
1668 3791 5698 5916
1670 5325 7401
1673 2547 2642 4185 4402 4581 5796 6602
1674 1770 2305 3556 3576 4583 5243 5742 5961 6785 7451
1676 4599 7147
1684
1690 4247
1691 2210 3993 5170
1692
1693 2276 2667 3593 4589 5027
1700 1732 2113 4119 4986
1709 1958 7268
1711 1976 4900 4922 6025
1717 3211
1718
1719 7029
1723
1725 3819 4289 4516 5143 6843
1728 2107
1733 3184 3625
1734 4237 5281 5433 7460
1737 4127 5783
1741 2929 3052 3678 4125 5747 7023 7427
1743 1864 3453 3887 4325 5146 5244 5381 6195 6413 6561 7187 7269
1752 4380 5535 6826
1754 3761
1759 1826 2615 3342 4098 4795 5757
1763 3775 4472 5190 5441 6369 6921
1765 2109 2125 3786
1766 2488
1767 4003
1769 2472
1771
1773 3937 4340 4743 6435
1775 2394 2621 4126
1777
1781 2714 4558 4809 4906 6368
1782 4593 5033
1787
1792
1793 3503 3834 4319 5459
1796 2130 3508 5872
1800 7202
1803 2355 2921 4614
1807 1906 2780 6070 6309 6802
1809 7424
1815 1953
1817 5188 6896
1818 2184 2253 2363 2719 4964
1823 3363 6659
1832 2200 2349 2527 2589 5232 5652 5917
1839 4309 4966
1841 2649 2933
1843 2725 2781 6899
1847 6696 6996
1848
1849 1959 3328 4028 7316
1851 4931
1856
1859 2750 4212 4836
1862 6781
1870 2452 3621 3813 3855 4551 5613 6334
1888 1912
1892 2434 3220 4902 5972 6855
1896
1901 6662
1902 4423 4655 4977 7177
1903 7013
1910 2044 2236 2475 2664 3531 4189 4806
1913
1915 2313 2480 6728
1916
1921 2081 4034 5911 7234
1923 3430 5745 7350
1926 2099 2926 3309
1932 4418
1935 7230
1939 2505
1942 2539 2803 2871 3256 4053 6395
1944 4186
1945 2456
1951
1952 3450 5151
1960 3897
1962 2093 3049 6280
1970 2641
1975
1978 2353 2659 5979 6034 7038
1979 3836
1986
1988 2840 2851 4914 6430
1991 5000 6171
1992 2089 2491 3960 4364 5423 5822
1999 2492 4952
2000 4217 5009 7009
2009 4192 6609
2014
2017 6215
2020 2728 4271 4845 6631
2027 5282 6445
2029 2592 2824 3276 3362 4227 4277 5374 5587 5768 6180 6263 6427 6691 6729
2031 7256
2034 2939 3727
2037 2515 2757 2791 3436 5274 6069 6210 6373 7377
2046 5714 7428
2057
2060
2069 3731 7123
2070 2878 3219 3896 4082 4951
2071 3477 3929
2076 5091
2077 3603 6433
2079 2729 3165 4224 5964 6252
2080 3104 4373
2084 2786 6502 7296
2086 2931 3640 3728 4563 4924
2101 6571
2110 6906
2120 2727 5880
2127 2461 3010
2134 2603 3628 4287 5874
2138 3131 3890 7185 7370
2140 3321 4410 5877
2141 2245 2699 3688 3957 5838 6614
2142 2964 5270
2148 3592 5279 7008
2151 2537
2155 3657 3684 3782 4086 5251 5373 6535 7219
2162 2945
2166
2177 2261 3729 4738 7279
2178
2179 4382 5850
2180 2896 4266 4362 6898
2182
2183
2198 4621
2201 3116 5216 6095
2206
2212
2213
2214 4075 4183
2222 5658
2229 2285 3591 5001 5842 6410 6543 6962 7129
2233
2234 3829 5691
2237 2914 3266 3511 4042 4718 5545 5715 5767 5859 5971 6254 6580 7260
2252 3273 3816
2257 3599 4169 4253 5554
2263 3027 5348
2265
2272
2273 6276
2277 3679 4052 4839 5989 6482
2281 3953 7379
2282
2284 3100 3739 4656 5720
2291 5995 6058 6161 7025
2292 2392 2806 5079 6519 7152
2293 4275 5183
2294 6487
2296
2301 3494 7334
2302 4657 5086 6983
2306
2308
2310 3325 3479 4513 6010 6231 6391
2311
2315 4008 5260 5367 5627 5933
2324 4531 4770 5492 5662 6428 6554
2325 4756 5553
2328
2345
2361 2905 6735 6890
2368 3577 4600 6007 7409
2370
2374 5854
2377
2386 4929 5775 6544 7247
2389 5056
2390 2776 2935 4886
2391 3544 4965 5558 6688
2393 4314
2400 4317
2401
2410 3459 4564 5011 6142
2413 4068 5148
2417 3642 4612 6274 6717 7062 7068 7089
2418 3012 4101 4452 4478 4811
2419
2420 2441 2661 5007 5435 6122 7002
2422 5272
2423 2569 4078 5498 6374
2427 6315 7193
2438
2442 3438 3507 4242 4522 4798 5975 7182
2448 3355 5507 7266
2450
2451
2454
2460 3604 4308 5119 6468 6875 7170
2466 4428 4788
2468 6685
2474 6282 6912
2476 2508 2973 4780 5246 5318 6134 7441
2481 2486 5540 5779
2493
2494 4094 6390 6469
2511 5124
2517
2525 5025 6452 6611
2529
2531 2852 7336
2532
2535 3081 4712 5840
2536 3329 3835 4000 5771 7022 7339
2540 3967 4058 5021 6264
2544
2548 5189 6600 7465 7488
2552
2559 4215 4356 5255
2560 3235 3828 5217 6594
2562 3403 5914
2568 3806 6666
2570 3290 3883 4324 5902
2571 2773 4500 4521 5488 6751 7049
2572 5283
2585 4230 5464
2586 4544 5523 5625 6040 6530 7442
2590 3954
2591
2594 4703 5692 6956
2596
2599 2884
2601 2647 6313 6605
2607 3157 6047
2608
2611
2613 4440 6470 6989
2617 2657 3771
2620 2741 6981
2624 3578 4744
2626 7425
2628 3490 3972 7194
2644 4499
2652 2846 6377 6829
2660 5053
2663 3234
2670 4220
2674 3015 3200 3555 4351
2680
2682 6379
2688 3377 3443 5731 6787 6994 7476
2703 7271
2706 5646 6338 6638
2711 2919 4117 6670
2730 2952 4156 6398 6654
2731 2800 5159
2732 2949 3069 3682 3868 4554 4595 4766 6199 7165 7415 7468
2739
2744 3708 5544 5750 6127 7042
2746 2856 2955 4304 5490 6730
2749 6186 6701 6848
2754 3144 4896 6073
2756 3557 4748 4816 6399
2758 7209
2761 3097 4448 5858 6110
2768
2771 3586 5136 6238
2779
2789 3057 3646
2793 5344
2797 3206 3432 4143 4846 6947
2805
2807 5043 5438 5514
2811
2814 3744 3807
2844 3533
2845 4384 6228 6925
2857 3304 5647
2859 3926 5781 6425
2861 7011
2864
2869 3125 3763 5068 6635
2879 4434 5334 6694 7043
2881 6837
2882 3111 4560 4666
2883 3797
2890 3465 3905 4214 4958
2894 3007 3811 4032 5668 5815 5973 7095
2895 3426 4570 5986
2898 3281 3468 5519 6845
2903 3259 3803 5672 7258
2907 4729 6193
2920 4229 5689
2922 3741 6461 6680 6877
2923 5469
2925
2928 6106 6563
2932 3042 4320 4449 4885 5846 6485
2944 4491 6870
2959 4170
2960
2961
2971
2972
2975
2993 5546
2997 3003
2998 4568
3001 4857 5897 6505
3006
3020
3022 3501
3025
3035 3120 6448
3041
3056 3291
3060
3062
3064 7083
3067 3945
3083 4073
3088
3098 3864 6857
3101
3106
3115 4898
3123 6157
3134 4602
3138 6458
3141
3146 4089 4265
3148 6968
3150 3192 5072
3160
3175 7087 7310 7343
3176 6225
3190 5296 6133
3202 6029 6824
3204 4177
3215 4174 4610 5506 5676
3218 4812 5173
3222 7323
3225
3229 3641 6431 6500
3231 5743
3233 3617 6820
3240 5650
3243
3244
3251
3252 3499
3258 5716
3260
3262 4932 5526
3272 4862 6523
3286
3295 3347 4633
3305 3410 4745 5982 6359
3306 3316 4561 7308
3307
3313 4184
3314
3315
3317
3323 5483 5569 5638 5804 5894 6378 6557
3327 6192
3335
3339 4305
3348
3350 7328
3357
3358 3534 4061 4632 5179
3364 3874
3369 5705
3372 5287 5460 5565 7363
3374
3386 3611 3986 4790 7386
3391 5391 6709 7137
3392 5680 5969 6665
3393 5029 5837 6562 6760
3397
3404 3563
3405
3414
3415
3419
3422 4705 6057
3424 4669 6001 6136
3428
3433 3981 4502 4708
3447
3451 3614 6992
3454 4594
3455
3457
3462 4200
3466 3703 5104 6319 7303
3469 4383 5936
3488 5998
3493 4139
3496 5158 5525
3502 6135 6745 7273
3512 7414
3516
3517 5090 7360
3523 4592
3524 6340 6620 6645 7080
3535 5726 6030
3538
3541 4751
3543
3554 4416 6863
3559
3565 3963 5026 7227
3567
3582
3606 4366 6243 6344 7205
3615 4872 5012 5098 5168 5592
3631
3635
3637
3653
3655 5055 5900 6903
3663 5468 6672 6812
3668 7228
3676 6568
3677 6251 6888 6975
3696 6191
3700
3715 4270 4352 4665 5139
3733
3737
3740 5413
3747 6332 6856
3752
3753
3757 4664 4948 6801 7010 7016
3769 3889 4128 4401 7021 7493
3777
3781
3785
3793 6072
3802
3818 4419 5096 6035 6959
3820 5597
3827
3833
3842
3851 3938 6042 7353
3854
3858
3873
3885 6014 6016
3923
3928 4995 7331
3935
3943 5632 7024
3969
3977 4553 5832
3978 6663
3980
3989
3991 6209 7214
3996 5069
3999 7498
4002 6423 7361
4006 5307 7131
4007
4018 4083 5976 6560 6598
4049 4482
4054 4446 5390 5403
4055
4071 6050 6371
4080
4085
4115 5799 7206
4121 7075
4129 6612
4131 4438
4148
4158
4159 4675
4160 5574
4166
4181 6407
4188
4190
4213
4233 4988
4261
4262 4288
4268
4293
4294 4733
4299
4301 5137
4310 4536 5156
4332 5919
4341
4344
4354
4359 5746
4361 4465 5350 6547
4367 7410
4375
4389
4393
4398 5102
4432 6163
4441 5353 5619
4457
4468
4469
4480
4486
4488
4493
4498 5724 5882
4508
4512 5991 6466
4514 7189
4523 7040
4529
4537 6936
4552
4556 5323
4567
4572
4577
4580
4584 5599
4588 5383
4590
4605
4618
4630
4637 5860 6275
4646 6779 6866
4647
4658 5644 5887 6046 7121
4663 5463
4668 5921
4674 5355 6327 7078
4684
4699 4967
4700
4725 4837 5756
4755 5439
4763 7307 7345
4768
4771
4783
4786
4792
4801
4805
4825
4826 6846
4840 5988
4856
4887
4888 5713
4893 5118 5202 5655 6044 6222 7220
4916 5185
4917
4921
4942
4962 5494 6596
4963
5031
5035
5070
5083 7142
5100 7480
5108
5111
5112 5329
5149 6051 6754
5164
5167 6950
5176
5178 6788 6798 7430
5187
5197
5229
5258
5265 6551
5273 6664 7031 7101
5292 6894
5295
5304
5315 5446 5636
5321
5331
5343
5351
5375
5378
5387
5397
5407 5422
5428 7019
5471
5480
5481
5510 5527 6099 6249 6970
5524
5556
5564 7382 7398
5567
5581 6326
5586
5593 6357 6490
5596
5611
5614
5615
5629
5642
5651
5683 6510
5690
5738
5739 6164
5784
5786
5794
5810
5811
5812
5816 7166
5820
5828 6700
5831
5855
5886
5892
5898
5904
5928
5929
5946 7006
5980
5984 6419
5993
6003 7108
6009 6139
6024
6076
6082 6964
6086 6514
6118 6949
6151
6158
6167 6599 7035
6172
6217 6668
6219
6221
6229
6245
6262 7200
6335 6362 6741 6948
6336
6339 6764
6351
6352
6365
6389 7224
6438 6457
6447
6471
6476
6480 7066
6481
6483
6486 7046
6503
6534
6540
6546
6548
6569
6603
6625
6641 7392
6650
6661
6684
6731
6738 7072
6746
6750
6752
6761
6765
6775
6778
6799
6809
6811
6813
6822
6850
6858
6879
6882
6884
6887
6908
6923
6924
6926
6930
6939
6963
6973
7027
7050
7079
7084 7400
7088
7113
7146
7178
7190
7243
7253
7276
7286
7291
7302
7314
7330
7364
7479 7484
